lijiantao2018114266_01/simulation/qsim/lijiantao2018114266_01.msim.vcd
$comment
	File created using the following command:
		vcd file lijiantao2018114266_01.msim.vcd -direction
$end
$date
	Wed Jul 08 20:59:30 2020
$end
$version
	ModelSim Version 10.5b
$end
$timescale
	1ps
$end

$scope module lijiantao2018114266_01_vlg_vec_tst $end
$var reg 1 ! CLK $end
$var wire 1 " Y_500HZ $end

$scope module i1 $end
$var wire 1 # gnd $end
$var wire 1 $ vcc $end
$var wire 1 % unknown $end
$var tri1 1 & devclrn $end
$var tri1 1 ' devpor $end
$var tri1 1 ( devoe $end
$var wire 1 ) Y_500HZ~output_o $end
$var wire 1 * CLK~input_o $end
$var wire 1 + Add0~53_sumout $end
$var wire 1 , Add0~2 $end
$var wire 1 - Add0~41_sumout $end
$var wire 1 . Add0~42 $end
$var wire 1 / Add0~37_sumout $end
$var wire 1 0 Add0~38 $end
$var wire 1 1 Add0~33_sumout $end
$var wire 1 2 Add0~34 $end
$var wire 1 3 Add0~29_sumout $end
$var wire 1 4 Add0~30 $end
$var wire 1 5 Add0~25_sumout $end
$var wire 1 6 Add0~26 $end
$var wire 1 7 Add0~57_sumout $end
$var wire 1 8 Add0~58 $end
$var wire 1 9 Add0~61_sumout $end
$var wire 1 : Add0~62 $end
$var wire 1 ; Add0~5_sumout $end
$var wire 1 < Add0~6 $end
$var wire 1 = Add0~9_sumout $end
$var wire 1 > Add0~10 $end
$var wire 1 ? Add0~13_sumout $end
$var wire 1 @ Add0~14 $end
$var wire 1 A Add0~17_sumout $end
$var wire 1 B Add0~18 $end
$var wire 1 C Add0~21_sumout $end
$var wire 1 D Equal0~0_combout $end
$var wire 1 E Equal0~1_combout $end
$var wire 1 F Equal0~2_combout $end
$var wire 1 G Equal0~3_combout $end
$var wire 1 H Add0~54 $end
$var wire 1 I Add0~49_sumout $end
$var wire 1 J Add0~50 $end
$var wire 1 K Add0~45_sumout $end
$var wire 1 L Add0~46 $end
$var wire 1 M Add0~1_sumout $end
$var wire 1 N TMP~0_combout $end
$var wire 1 O TMP~q $end
$var wire 1 P CNT [15] $end
$var wire 1 Q CNT [14] $end
$var wire 1 R CNT [13] $end
$var wire 1 S CNT [12] $end
$var wire 1 T CNT [11] $end
$var wire 1 U CNT [10] $end
$var wire 1 V CNT [9] $end
$var wire 1 W CNT [8] $end
$var wire 1 X CNT [7] $end
$var wire 1 Y CNT [6] $end
$var wire 1 Z CNT [5] $end
$var wire 1 [ CNT [4] $end
$var wire 1 \ CNT [3] $end
$var wire 1 ] CNT [2] $end
$var wire 1 ^ CNT [1] $end
$var wire 1 _ CNT [0] $end
$upscope $end
$upscope $end
$enddefinitions $end
#0
$dumpvars
0!
0"
0#
1$
x%
1&
1'
1(
0)
0*
1+
0,
0-
0.
0/
00
01
02
03
04
05
06
07
08
09
0:
0;
0<
0=
0>
0?
0@
0A
0B
0C
0D
0E
0F
0G
0H
0I
0J
0K
0L
0M
0N
0O
0_
0^
0]
0\
0[
0Z
0Y
0X
0W
0V
0U
0T
0S
0R
0Q
0P
$end
#5000
1!
1*
1_
1H
0+
1I
#10000
0!
0*
#15000
1!
1*
1^
0_
0H
1J
1+
0I
0J
1I
1K
0K
#20000
0!
0*
#25000
1!
1*
1_
1H
0+
1J
0I
1K
#30000
0!
0*
#35000
1!
1*
1]
0^
0_
0H
0J
1L
1+
1I
0K
0L
0I
1K
1M
0M
#40000
0!
0*
#45000
1!
1*
1_
1H
0+
1I
#50000
0!
0*
#55000
1!
1*
1^
0_
0H
1J
1+
0I
0J
1L
1I
0K
0L
1K
1M
0M
#60000
0!
0*
#65000
1!
1*
1_
1H
0+
1J
0I
1L
0K
1M
#70000
0!
0*
#75000
1!
1*
1\
0]
0^
0_
0H
0J
0L
1,
1+
1I
1K
0M
0,
0I
0K
1M
1-
0-
#80000
0!
0*
#85000
1!
1*
1_
1H
0+
1I
#90000
0!
0*
#95000
1!
1*
1^
0_
0H
1J
1+
0I
0J
1I
1K
0K
#100000
0!
0*
#105000
1!
1*
1_
1H
0+
1J
0I
1K
#110000
0!
0*
#115000
1!
1*
1]
0^
0_
0H
0J
1L
1+
1I
0K
0L
1,
0I
1K
0M
0,
1M
1-
0-
#120000
0!
0*
#125000
1!
1*
1_
1H
0+
1I
#130000
0!
0*
#135000
1!
1*
1^
0_
0H
1J
1+
0I
0J
1L
1I
0K
0L
1,
1K
0M
0,
1M
1-
0-
#140000
0!
0*
#145000
1!
1*
1_
1H
0+
1J
0I
1L
0K
1,
0M
1-
#150000
0!
0*
#155000
1!
1*
0\
0]
0^
0_
1[
1.
0H
0J
0L
0,
0-
1+
1I
1K
1M
0.
1/
0I
0K
0M
1-
0/
#160000
0!
0*
#165000
1!
1*
1_
1H
0+
1I
#170000
0!
0*
#175000
1!
1*
1^
0_
0H
1J
1+
0I
0J
1I
1K
0K
#180000
0!
0*
#185000
1!
1*
1_
1H
0+
1J
0I
1K
#190000
0!
0*
#195000
1!
1*
1]
0^
0_
0H
0J
1L
1+
1I
0K
0L
0I
1K
1M
0M
#200000
0!
0*
#205000
1!
1*
1_
1H
0+
1I
#210000
0!
0*
#215000
1!
1*
1^
0_
0H
1J
1+
0I
0J
1L
1I
0K
0L
1K
1M
0M
#220000
0!
0*
#225000
1!
1*
1_
1H
0+
1J
0I
1L
0K
1M
#230000
0!
0*
#235000
1!
1*
1\
0]
0^
0_
0H
0J
0L
1,
1+
1I
1K
0M
0,
1.
0I
0K
1M
0-
0.
1-
1/
0/
#240000
0!
0*
#245000
1!
1*
1_
1H
0+
1I
#250000
0!
0*
#255000
1!
1*
1^
0_
0H
1J
1+
0I
0J
1I
1K
0K
#260000
0!
0*
#265000
1!
1*
1_
1H
0+
1J
0I
1K
#270000
0!
0*
#275000
1!
1*
1]
0^
0_
0H
0J
1L
1+
1I
0K
0L
1,
0I
1K
0M
0,
1.
1M
0-
0.
1-
1/
0/
#280000
0!
0*
#285000
1!
1*
1_
1H
0+
1I
#290000
0!
0*
#295000
1!
1*
1^
0_
0H
1J
1+
0I
0J
1L
1I
0K
0L
1,
1K
0M
0,
1.
1M
0-
0.
1-
1/
0/
#300000
0!
0*
#305000
1!
1*
1_
1H
0+
1J
0I
1L
0K
1,
0M
1.
0-
1/
#310000
0!
0*
#315000
1!
1*
0\
0]
0^
0_
1Z
0[
0.
10
0H
0J
0L
0,
1-
0/
1+
1I
1K
1M
00
1/
11
0I
0K
0M
0-
01
#320000
0!
0*
#325000
1!
1*
1_
1H
0+
1I
#330000
0!
0*
#335000
1!
1*
1^
0_
0H
1J
1+
0I
0J
1I
1K
0K
#340000
0!
0*
#345000
1!
1*
1_
1H
0+
1J
0I
1K
#350000
0!
0*
#355000
1!
1*
1]
0^
0_
0H
0J
1L
1+
1I
0K
0L
0I
1K
1M
0M
#360000
0!
0*
#365000
1!
1*
1_
1H
0+
1I
#370000
0!
0*
#375000
1!
1*
1^
0_
0H
1J
1+
0I
0J
1L
1I
0K
0L
1K
1M
0M
#380000
0!
0*
#385000
1!
1*
1_
1H
0+
1J
0I
1L
0K
1M
#390000
0!
0*
#395000
1!
1*
1\
0]
0^
0_
0H
0J
0L
1,
1+
1I
1K
0M
0,
0I
0K
1M
1-
0-
#400000
0!
0*
#405000
1!
1*
1_
1H
0+
1I
#410000
0!
0*
#415000
1!
1*
1^
0_
0H
1J
1+
0I
0J
1I
1K
0K
#420000
0!
0*
#425000
1!
1*
1_
1H
0+
1J
0I
1K
#430000
0!
0*
#435000
1!
1*
1]
0^
0_
0H
0J
1L
1+
1I
0K
0L
1,
0I
1K
0M
0,
1M
1-
0-
#440000
0!
0*
#445000
1!
1*
1_
1H
0+
1I
#450000
0!
0*
#455000
1!
1*
1^
0_
0H
1J
1+
0I
0J
1L
1I
0K
0L
1,
1K
0M
0,
1M
1-
0-
#460000
0!
0*
#465000
1!
1*
1_
1H
0+
1J
0I
1L
0K
1,
0M
1-
#470000
0!
0*
#475000
1!
1*
0\
0]
0^
0_
1[
1.
0H
0J
0L
0,
0-
1+
1I
1K
1M
10
0.
0/
0I
0K
0M
1-
00
11
1/
01
#480000
0!
0*
#485000
1!
1*
1_
1H
0+
1I
#490000
0!
0*
#495000
1!
1*
1^
0_
0H
1J
1+
0I
0J
1I
1K
0K
#500000
0!
0*
#505000
1!
1*
1_
1H
0+
1J
0I
1K
#510000
0!
0*
#515000
1!
1*
1]
0^
0_
0H
0J
1L
1+
1I
0K
0L
0I
1K
1M
0M
#520000
0!
0*
#525000
1!
1*
1_
1H
0+
1I
#530000
0!
0*
#535000
1!
1*
1^
0_
0H
1J
1+
0I
0J
1L
1I
0K
0L
1K
1M
0M
#540000
0!
0*
#545000
1!
1*
1_
1H
0+
1J
0I
1L
0K
1M
#550000
0!
0*
#555000
1!
1*
1\
0]
0^
0_
0H
0J
0L
1,
1+
1I
1K
0M
0,
1.
0I
0K
1M
0-
0.
10
1-
0/
00
1/
11
01
#560000
0!
0*
#565000
1!
1*
1_
1H
0+
1I
#570000
0!
0*
#575000
1!
1*
1^
0_
0H
1J
1+
0I
0J
1I
1K
0K
#580000
0!
0*
#585000
1!
1*
1_
1H
0+
1J
0I
1K
#590000
0!
0*
#595000
1!
1*
1]
0^
0_
0H
0J
1L
1+
1I
0K
0L
1,
0I
1K
0M
0,
1.
1M
0-
0.
10
1-
0/
00
1/
11
01
#600000
0!
0*
#605000
1!
1*
1_
1H
0+
1I
#610000
0!
0*
#615000
1!
1*
1^
0_
0H
1J
1+
0I
0J
1L
1I
0K
0L
1,
1K
0M
0,
1.
1M
0-
0.
10
1-
0/
00
1/
11
01
#620000
0!
0*
#625000
1!
1*
1_
1H
0+
1J
0I
1L
0K
1,
0M
1.
0-
10
0/
11
#630000
0!
0*
#635000
1!
1*
0\
0]
0^
0_
1Y
0Z
0[
0.
00
12
0H
0J
0L
0,
1-
1/
01
1+
1I
1K
1M
02
0/
11
13
0I
0K
0M
0-
03
#640000
0!
0*
#645000
1!
1*
1_
1H
0+
1I
#650000
0!
0*
#655000
1!
1*
1^
0_
0H
1J
1+
0I
0J
1I
1K
0K
#660000
0!
0*
#665000
1!
1*
1_
1H
0+
1J
0I
1K
#670000
0!
0*
#675000
1!
1*
1]
0^
0_
0H
0J
1L
1+
1I
0K
0L
0I
1K
1M
0M
#680000
0!
0*
#685000
1!
1*
1_
1H
0+
1I
#690000
0!
0*
#695000
1!
1*
1^
0_
0H
1J
1+
0I
0J
1L
1I
0K
0L
1K
1M
0M
#700000
0!
0*
#705000
1!
1*
1_
1H
0+
1J
0I
1L
0K
1M
#710000
0!
0*
#715000
1!
1*
1\
0]
0^
0_
0H
0J
0L
1,
1+
1I
1K
0M
0,
0I
0K
1M
1-
0-
#720000
0!
0*
#725000
1!
1*
1_
1H
0+
1I
#730000
0!
0*
#735000
1!
1*
1^
0_
0H
1J
1+
0I
0J
1I
1K
0K
#740000
0!
0*
#745000
1!
1*
1_
1H
0+
1J
0I
1K
#750000
0!
0*
#755000
1!
1*
1]
0^
0_
0H
0J
1L
1+
1I
0K
0L
1,
0I
1K
0M
0,
1M
1-
0-
#760000
0!
0*
#765000
1!
1*
1_
1H
0+
1I
#770000
0!
0*
#775000
1!
1*
1^
0_
0H
1J
1+
0I
0J
1L
1I
0K
0L
1,
1K
0M
0,
1M
1-
0-
#780000
0!
0*
#785000
1!
1*
1_
1H
0+
1J
0I
1L
0K
1,
0M
1-
#790000
0!
0*
#795000
1!
1*
0\
0]
0^
0_
1[
1.
0H
0J
0L
0,
0-
1+
1I
1K
1M
0.
1/
0I
0K
0M
1-
0/
#800000
0!
0*
#805000
1!
1*
1_
1H
0+
1I
#810000
0!
0*
#815000
1!
1*
1^
0_
0H
1J
1+
0I
0J
1I
1K
0K
#820000
0!
0*
#825000
1!
1*
1_
1H
0+
1J
0I
1K
#830000
0!
0*
#835000
1!
1*
1]
0^
0_
0H
0J
1L
1+
1I
0K
0L
0I
1K
1M
0M
#840000
0!
0*
#845000
1!
1*
1_
1H
0+
1I
#850000
0!
0*
#855000
1!
1*
1^
0_
0H
1J
1+
0I
0J
1L
1I
0K
0L
1K
1M
0M
#860000
0!
0*
#865000
1!
1*
1_
1H
0+
1J
0I
1L
0K
1M
#870000
0!
0*
#875000
1!
1*
1\
0]
0^
0_
0H
0J
0L
1,
1+
1I
1K
0M
0,
1.
0I
0K
1M
0-
0.
1-
1/
0/
#880000
0!
0*
#885000
1!
1*
1_
1H
0+
1I
#890000
0!
0*
#895000
1!
1*
1^
0_
0H
1J
1+
0I
0J
1I
1K
0K
#900000
0!
0*
#905000
1!
1*
1_
1H
0+
1J
0I
1K
#910000
0!
0*
#915000
1!
1*
1]
0^
0_
0H
0J
1L
1+
1I
0K
0L
1,
0I
1K
0M
0,
1.
1M
0-
0.
1-
1/
0/
#920000
0!
0*
#925000
1!
1*
1_
1H
0+
1I
#930000
0!
0*
#935000
1!
1*
1^
0_
0H
1J
1+
0I
0J
1L
1I
0K
0L
1,
1K
0M
0,
1.
1M
0-
0.
1-
1/
0/
#940000
0!
0*
#945000
1!
1*
1_
1H
0+
1J
0I
1L
0K
1,
0M
1.
0-
1/
#950000
0!
0*
#955000
1!
1*
0\
0]
0^
0_
1Z
0[
0.
10
0H
0J
0L
0,
1-
0/
1+
1I
1K
1M
00
12
1/
01
0I
0K
0M
0-
02
11
13
03
#960000
0!
0*
#965000
1!
1*
1_
1H
0+
1I
#970000
0!
0*
#975000
1!
1*
1^
0_
0H
1J
1+
0I
0J
1I
1K
0K
#980000
0!
0*
#985000
1!
1*
1_
1H
0+
1J
0I
1K
#990000
0!
0*
#995000
1!
1*
1]
0^
0_
0H
0J
1L
1+
1I
0K
0L
0I
1K
1M
0M
#1000000
0!
0*
#1005000
1!
1*
1_
1H
0+
1I
#1010000
0!
0*
#1015000
1!
1*
1^
0_
0H
1J
1+
0I
0J
1L
1I
0K
0L
1K
1M
0M
#1020000
0!
0*
#1025000
1!
1*
1_
1H
0+
1J
0I
1L
0K
1M
#1030000
0!
0*
#1035000
1!
1*
1\
0]
0^
0_
0H
0J
0L
1,
1+
1I
1K
0M
0,
0I
0K
1M
1-
0-
#1040000
0!
0*
#1045000
1!
1*
1_
1H
0+
1I
#1050000
0!
0*
#1055000
1!
1*
1^
0_
0H
1J
1+
0I
0J
1I
1K
0K
#1060000
0!
0*
#1065000
1!
1*
1_
1H
0+
1J
0I
1K
#1070000
0!
0*
#1075000
1!
1*
1]
0^
0_
0H
0J
1L
1+
1I
0K
0L
1,
0I
1K
0M
0,
1M
1-
0-
#1080000
0!
0*
#1085000
1!
1*
1_
1H
0+
1I
#1090000
0!
0*
#1095000
1!
1*
1^
0_
0H
1J
1+
0I
0J
1L
1I
0K
0L
1,
1K
0M
0,
1M
1-
0-
#1100000
0!
0*
#1105000
1!
1*
1_
1H
0+
1J
0I
1L
0K
1,
0M
1-
#1110000
0!
0*
#1115000
1!
1*
0\
0]
0^
0_
1[
1.
0H
0J
0L
0,
0-
1+
1I
1K
1M
10
0.
0/
0I
0K
0M
1-
12
00
01
1/
02
13
11
03
#1120000
0!
0*
#1125000
1!
1*
1_
1H
0+
1I
#1130000
0!
0*
#1135000
1!
1*
1^
0_
0H
1J
1+
0I
0J
1I
1K
0K
#1140000
0!
0*
#1145000
1!
1*
1_
1H
0+
1J
0I
1K
#1150000
0!
0*
#1155000
1!
1*
1]
0^
0_
0H
0J
1L
1+
1I
0K
0L
0I
1K
1M
0M
#1160000
0!
0*
#1165000
1!
1*
1_
1H
0+
1I
#1170000
0!
0*
#1175000
1!
1*
1^
0_
0H
1J
1+
0I
0J
1L
1I
0K
0L
1K
1M
0M
#1180000
0!
0*
#1185000
1!
1*
1_
1H
0+
1J
0I
1L
0K
1M
#1190000
0!
0*
#1195000
1!
1*
1\
0]
0^
0_
0H
0J
0L
1,
1+
1I
1K
0M
0,
1.
0I
0K
1M
0-
0.
10
1-
0/
00
12
1/
01
02
11
13
03
#1200000
0!
0*
#1205000
1!
1*
1_
1H
0+
1I
#1210000
0!
0*
#1215000
1!
1*
1^
0_
0H
1J
1+
0I
0J
1I
1K
0K
#1220000
0!
0*
#1225000
1!
1*
1_
1H
0+
1J
0I
1K
#1230000
0!
0*
#1235000
1!
1*
1]
0^
0_
0H
0J
1L
1+
1I
0K
0L
1,
0I
1K
0M
0,
1.
1M
0-
0.
10
1-
0/
00
12
1/
01
02
11
13
03
#1240000
0!
0*
#1245000
1!
1*
1_
1H
0+
1I
#1250000
0!
0*
#1255000
1!
1*
1^
0_
0H
1J
1+
0I
0J
1L
1I
0K
0L
1,
1K
0M
0,
1.
1M
0-
0.
10
1-
0/
00
12
1/
01
02
11
13
03
#1260000
0!
0*
#1265000
1!
1*
1_
1H
0+
1J
0I
1L
0K
1,
0M
1.
0-
10
0/
12
01
13
#1270000
0!
0*
#1275000
1!
1*
0\
0]
0^
0_
1X
0Y
0Z
0[
0.
00
02
14
0H
0J
0L
0,
1-
1/
11
03
1+
1I
1K
1M
04
0/
01
13
15
0I
0K
0M
0-
05
#1280000
0!
0*
#1285000
1!
1*
1_
1H
0+
1I
#1290000
0!
0*
#1295000
1!
1*
1^
0_
0H
1J
1+
0I
0J
1I
1K
0K
#1300000
0!
0*
#1305000
1!
1*
1_
1H
0+
1J
0I
1K
#1310000
0!
0*
#1315000
1!
1*
1]
0^
0_
0H
0J
1L
1+
1I
0K
0L
0I
1K
1M
0M
#1320000
0!
0*
#1325000
1!
1*
1_
1H
0+
1I
#1330000
0!
0*
#1335000
1!
1*
1^
0_
0H
1J
1+
0I
0J
1L
1I
0K
0L
1K
1M
0M
#1340000
0!
0*
#1345000
1!
1*
1_
1H
0+
1J
0I
1L
0K
1M
#1350000
0!
0*
#1355000
1!
1*
1\
0]
0^
0_
0H
0J
0L
1,
1+
1I
1K
0M
0,
0I
0K
1M
1-
0-
#1360000
0!
0*
#1365000
1!
1*
1_
1H
0+
1I
#1370000
0!
0*
#1375000
1!
1*
1^
0_
0H
1J
1+
0I
0J
1I
1K
0K
#1380000
0!
0*
#1385000
1!
1*
1_
1H
0+
1J
0I
1K
#1390000
0!
0*
#1395000
1!
1*
1]
0^
0_
0H
0J
1L
1+
1I
0K
0L
1,
0I
1K
0M
0,
1M
1-
0-
#1400000
0!
0*
#1405000
1!
1*
1_
1H
0+
1I
#1410000
0!
0*
#1415000
1!
1*
1^
0_
0H
1J
1+
0I
0J
1L
1I
0K
0L
1,
1K
0M
0,
1M
1-
0-
#1420000
0!
0*
#1425000
1!
1*
1_
1H
0+
1J
0I
1L
0K
1,
0M
1-
#1430000
0!
0*
#1435000
1!
1*
0\
0]
0^
0_
1[
1.
0H
0J
0L
0,
0-
1+
1I
1K
1M
0.
1/
0I
0K
0M
1-
0/
#1440000
0!
0*
#1445000
1!
1*
1_
1H
0+
1I
#1450000
0!
0*
#1455000
1!
1*
1^
0_
0H
1J
1+
0I
0J
1I
1K
0K
#1460000
0!
0*
#1465000
1!
1*
1_
1H
0+
1J
0I
1K
#1470000
0!
0*
#1475000
1!
1*
1]
0^
0_
0H
0J
1L
1+
1I
0K
0L
0I
1K
1M
0M
#1480000
0!
0*
#1485000
1!
1*
1_
1H
0+
1I
#1490000
0!
0*
#1495000
1!
1*
1^
0_
0H
1J
1+
0I
0J
1L
1I
0K
0L
1K
1M
0M
#1500000
0!
0*
#1505000
1!
1*
1_
1H
0+
1J
0I
1L
0K
1M
#1510000
0!
0*
#1515000
1!
1*
1\
0]
0^
0_
0H
0J
0L
1,
1+
1I
1K
0M
0,
1.
0I
0K
1M
0-
0.
1-
1/
0/
#1520000
0!
0*
#1525000
1!
1*
1_
1H
0+
1I
#1530000
0!
0*
#1535000
1!
1*
1^
0_
0H
1J
1+
0I
0J
1I
1K
0K
#1540000
0!
0*
#1545000
1!
1*
1_
1H
0+
1J
0I
1K
#1550000
0!
0*
#1555000
1!
1*
1]
0^
0_
0H
0J
1L
1+
1I
0K
0L
1,
0I
1K
0M
0,
1.
1M
0-
0.
1-
1/
0/
#1560000
0!
0*
#1565000
1!
1*
1_
1H
0+
1I
#1570000
0!
0*
#1575000
1!
1*
1^
0_
0H
1J
1+
0I
0J
1L
1I
0K
0L
1,
1K
0M
0,
1.
1M
0-
0.
1-
1/
0/
#1580000
0!
0*
#1585000
1!
1*
1_
1H
0+
1J
0I
1L
0K
1,
0M
1.
0-
1/
#1590000
0!
0*
#1595000
1!
1*
0\
0]
0^
0_
1Z
0[
0.
10
0H
0J
0L
0,
1-
0/
1+
1I
1K
1M
00
1/
11
0I
0K
0M
0-
01
#1600000
0!
0*
#1605000
1!
1*
1_
1H
0+
1I
#1610000
0!
0*
#1615000
1!
1*
1^
0_
0H
1J
1+
0I
0J
1I
1K
0K
#1620000
0!
0*
#1625000
1!
1*
1_
1H
0+
1J
0I
1K
#1630000
0!
0*
#1635000
1!
1*
1]
0^
0_
0H
0J
1L
1+
1I
0K
0L
0I
1K
1M
0M
#1640000
0!
0*
#1645000
1!
1*
1_
1H
0+
1I
#1650000
0!
0*
#1655000
1!
1*
1^
0_
0H
1J
1+
0I
0J
1L
1I
0K
0L
1K
1M
0M
#1660000
0!
0*
#1665000
1!
1*
1_
1H
0+
1J
0I
1L
0K
1M
#1670000
0!
0*
#1675000
1!
1*
1\
0]
0^
0_
0H
0J
0L
1,
1+
1I
1K
0M
0,
0I
0K
1M
1-
0-
#1680000
0!
0*
#1685000
1!
1*
1_
1H
0+
1I
#1690000
0!
0*
#1695000
1!
1*
1^
0_
0H
1J
1+
0I
0J
1I
1K
0K
#1700000
0!
0*
#1705000
1!
1*
1_
1H
0+
1J
0I
1K
#1710000
0!
0*
#1715000
1!
1*
1]
0^
0_
0H
0J
1L
1+
1I
0K
0L
1,
0I
1K
0M
0,
1M
1-
0-
#1720000
0!
0*
#1725000
1!
1*
1_
1H
0+
1I
#1730000
0!
0*
#1735000
1!
1*
1^
0_
0H
1J
1+
0I
0J
1L
1I
0K
0L
1,
1K
0M
0,
1M
1-
0-
#1740000
0!
0*
#1745000
1!
1*
1_
1H
0+
1J
0I
1L
0K
1,
0M
1-
#1750000
0!
0*
#1755000
1!
1*
0\
0]
0^
0_
1[
1.
0H
0J
0L
0,
0-
1+
1I
1K
1M
10
0.
0/
0I
0K
0M
1-
00
11
1/
01
#1760000
0!
0*
#1765000
1!
1*
1_
1H
0+
1I
#1770000
0!
0*
#1775000
1!
1*
1^
0_
0H
1J
1+
0I
0J
1I
1K
0K
#1780000
0!
0*
#1785000
1!
1*
1_
1H
0+
1J
0I
1K
#1790000
0!
0*
#1795000
1!
1*
1]
0^
0_
0H
0J
1L
1+
1I
0K
0L
0I
1K
1M
0M
#1800000
0!
0*
#1805000
1!
1*
1_
1H
0+
1I
#1810000
0!
0*
#1815000
1!
1*
1^
0_
0H
1J
1+
0I
0J
1L
1I
0K
0L
1K
1M
0M
#1820000
0!
0*
#1825000
1!
1*
1_
1H
0+
1J
0I
1L
0K
1M
#1830000
0!
0*
#1835000
1!
1*
1\
0]
0^
0_
0H
0J
0L
1,
1+
1I
1K
0M
0,
1.
0I
0K
1M
0-
0.
10
1-
0/
00
1/
11
01
#1840000
0!
0*
#1845000
1!
1*
1_
1H
0+
1I
#1850000
0!
0*
#1855000
1!
1*
1^
0_
0H
1J
1+
0I
0J
1I
1K
0K
#1860000
0!
0*
#1865000
1!
1*
1_
1H
0+
1J
0I
1K
#1870000
0!
0*
#1875000
1!
1*
1]
0^
0_
0H
0J
1L
1+
1I
0K
0L
1,
0I
1K
0M
0,
1.
1M
0-
0.
10
1-
0/
00
1/
11
01
#1880000
0!
0*
#1885000
1!
1*
1_
1H
0+
1I
#1890000
0!
0*
#1895000
1!
1*
1^
0_
0H
1J
1+
0I
0J
1L
1I
0K
0L
1,
1K
0M
0,
1.
1M
0-
0.
10
1-
0/
00
1/
11
01
#1900000
0!
0*
#1905000
1!
1*
1_
1H
0+
1J
0I
1L
0K
1,
0M
1.
0-
10
0/
11
#1910000
0!
0*
#1915000
1!
1*
0\
0]
0^
0_
1Y
0Z
0[
0.
00
12
0H
0J
0L
0,
1-
1/
01
1+
1I
1K
1M
02
14
0/
11
03
0I
0K
0M
0-
04
13
15
05
#1920000
0!
0*
#1925000
1!
1*
1_
1H
0+
1I
#1930000
0!
0*
#1935000
1!
1*
1^
0_
0H
1J
1+
0I
0J
1I
1K
0K
#1940000
0!
0*
#1945000
1!
1*
1_
1H
0+
1J
0I
1K
#1950000
0!
0*
#1955000
1!
1*
1]
0^
0_
0H
0J
1L
1+
1I
0K
0L
0I
1K
1M
0M
#1960000
0!
0*
#1965000
1!
1*
1_
1H
0+
1I
#1970000
0!
0*
#1975000
1!
1*
1^
0_
0H
1J
1+
0I
0J
1L
1I
0K
0L
1K
1M
0M
#1980000
0!
0*
#1985000
1!
1*
1_
1H
0+
1J
0I
1L
0K
1M
#1990000
0!
0*
#1995000
1!
1*
1\
0]
0^
0_
0H
0J
0L
1,
1+
1I
1K
0M
0,
0I
0K
1M
1-
0-
#2000000
0!
0*
#2005000
1!
1*
1_
1H
0+
1I
#2010000
0!
0*
#2015000
1!
1*
1^
0_
0H
1J
1+
0I
0J
1I
1K
0K
#2020000
0!
0*
#2025000
1!
1*
1_
1H
0+
1J
0I
1K
#2030000
0!
0*
#2035000
1!
1*
1]
0^
0_
0H
0J
1L
1+
1I
0K
0L
1,
0I
1K
0M
0,
1M
1-
0-
#2040000
0!
0*
#2045000
1!
1*
1_
1H
0+
1I
#2050000
0!
0*
#2055000
1!
1*
1^
0_
0H
1J
1+
0I
0J
1L
1I
0K
0L
1,
1K
0M
0,
1M
1-
0-
#2060000
0!
0*
#2065000
1!
1*
1_
1H
0+
1J
0I
1L
0K
1,
0M
1-
#2070000
0!
0*
#2075000
1!
1*
0\
0]
0^
0_
1[
1.
0H
0J
0L
0,
0-
1+
1I
1K
1M
0.
1/
0I
0K
0M
1-
0/
#2080000
0!
0*
#2085000
1!
1*
1_
1H
0+
1I
#2090000
0!
0*
#2095000
1!
1*
1^
0_
0H
1J
1+
0I
0J
1I
1K
0K
#2100000
0!
0*
#2105000
1!
1*
1_
1H
0+
1J
0I
1K
#2110000
0!
0*
#2115000
1!
1*
1]
0^
0_
0H
0J
1L
1+
1I
0K
0L
0I
1K
1M
0M
#2120000
0!
0*
#2125000
1!
1*
1_
1H
0+
1I
#2130000
0!
0*
#2135000
1!
1*
1^
0_
0H
1J
1+
0I
0J
1L
1I
0K
0L
1K
1M
0M
#2140000
0!
0*
#2145000
1!
1*
1_
1H
0+
1J
0I
1L
0K
1M
#2150000
0!
0*
#2155000
1!
1*
1\
0]
0^
0_
0H
0J
0L
1,
1+
1I
1K
0M
0,
1.
0I
0K
1M
0-
0.
1-
1/
0/
#2160000
0!
0*
#2165000
1!
1*
1_
1H
0+
1I
#2170000
0!
0*
#2175000
1!
1*
1^
0_
0H
1J
1+
0I
0J
1I
1K
0K
#2180000
0!
0*
#2185000
1!
1*
1_
1H
0+
1J
0I
1K
#2190000
0!
0*
#2195000
1!
1*
1]
0^
0_
0H
0J
1L
1+
1I
0K
0L
1,
0I
1K
0M
0,
1.
1M
0-
0.
1-
1/
0/
#2200000
0!
0*
#2205000
1!
1*
1_
1H
0+
1I
#2210000
0!
0*
#2215000
1!
1*
1^
0_
0H
1J
1+
0I
0J
1L
1I
0K
0L
1,
1K
0M
0,
1.
1M
0-
0.
1-
1/
0/
#2220000
0!
0*
#2225000
1!
1*
1_
1H
0+
1J
0I
1L
0K
1,
0M
1.
0-
1/
#2230000
0!
0*
#2235000
1!
1*
0\
0]
0^
0_
1Z
0[
0.
10
0H
0J
0L
0,
1-
0/
1+
1I
1K
1M
00
12
1/
01
0I
0K
0M
0-
02
14
11
03
04
13
15
05
#2240000
0!
0*
#2245000
1!
1*
1_
1H
0+
1I
#2250000
0!
0*
#2255000
1!
1*
1^
0_
0H
1J
1+
0I
0J
1I
1K
0K
#2260000
0!
0*
#2265000
1!
1*
1_
1H
0+
1J
0I
1K
#2270000
0!
0*
#2275000
1!
1*
1]
0^
0_
0H
0J
1L
1+
1I
0K
0L
0I
1K
1M
0M
#2280000
0!
0*
#2285000
1!
1*
1_
1H
0+
1I
#2290000
0!
0*
#2295000
1!
1*
1^
0_
0H
1J
1+
0I
0J
1L
1I
0K
0L
1K
1M
0M
#2300000
0!
0*
#2305000
1!
1*
1_
1H
0+
1J
0I
1L
0K
1M
#2310000
0!
0*
#2315000
1!
1*
1\
0]
0^
0_
0H
0J
0L
1,
1+
1I
1K
0M
0,
0I
0K
1M
1-
0-
#2320000
0!
0*
#2325000
1!
1*
1_
1H
0+
1I
#2330000
0!
0*
#2335000
1!
1*
1^
0_
0H
1J
1+
0I
0J
1I
1K
0K
#2340000
0!
0*
#2345000
1!
1*
1_
1H
0+
1J
0I
1K
#2350000
0!
0*
#2355000
1!
1*
1]
0^
0_
0H
0J
1L
1+
1I
0K
0L
1,
0I
1K
0M
0,
1M
1-
0-
#2360000
0!
0*
#2365000
1!
1*
1_
1H
0+
1I
#2370000
0!
0*
#2375000
1!
1*
1^
0_
0H
1J
1+
0I
0J
1L
1I
0K
0L
1,
1K
0M
0,
1M
1-
0-
#2380000
0!
0*
#2385000
1!
1*
1_
1H
0+
1J
0I
1L
0K
1,
0M
1-
#2390000
0!
0*
#2395000
1!
1*
0\
0]
0^
0_
1[
1.
0H
0J
0L
0,
0-
1+
1I
1K
1M
10
0.
0/
0I
0K
0M
1-
12
00
01
1/
14
02
03
11
04
15
13
05
#2400000
0!
0*
#2405000
1!
1*
1_
1H
0+
1I
#2410000
0!
0*
#2415000
1!
1*
1^
0_
0H
1J
1+
0I
0J
1I
1K
0K
#2420000
0!
0*
#2425000
1!
1*
1_
1H
0+
1J
0I
1K
#2430000
0!
0*
