lijiantao2018114266_04/simulation/qsim/lijiantao2018114266_04.msim.vcd
$comment
	File created using the following command:
		vcd file lijiantao2018114266_04.msim.vcd -direction
$end
$date
	Thu Jul 16 22:51:28 2020
$end
$version
	ModelSim Version 10.5b
$end
$timescale
	1ps
$end

$scope module lijiantao2018114266_04_vhd_vec_tst $end
$var wire 1 ! CLK_1HZ $end
$var wire 1 " CLK_2HZ $end
$var wire 1 # CLK_4HZ $end

$scope module i1 $end
$var wire 1 $ gnd $end
$var wire 1 % vcc $end
$var wire 1 & unknown $end
$var wire 1 ' devoe $end
$var wire 1 ( devclrn $end
$var wire 1 ) devpor $end
$var wire 1 * ww_devoe $end
$var wire 1 + ww_devclrn $end
$var wire 1 , ww_devpor $end
$var wire 1 - ww_CLK_4HZ $end
$var wire 1 . ww_CLK_2HZ $end
$var wire 1 / ww_CLK_1HZ $end
$var wire 1 0 \CLK_2HZ~output_o\ $end
$var wire 1 1 \CLK_1HZ~output_o\ $end
$var wire 1 2 \CLK_4HZ~input_o\ $end
$var wire 1 3 \TMP[0]~1_combout\ $end
$var wire 1 4 \TMP[1]~0_combout\ $end
$var wire 1 5 TMP [1] $end
$var wire 1 6 TMP [0] $end
$var wire 1 7 ALT_INV_TMP [1] $end
$var wire 1 8 ALT_INV_TMP [0] $end
$upscope $end
$upscope $end
$enddefinitions $end
#0
$dumpvars
0!
0"
0#
0$
1%
x&
1'
1(
1)
1*
1+
1,
0-
0.
0/
00
01
02
13
04
05
06
17
18
$end
#10000
1#
1-
12
16
08
03
14
10
1.
1"
#20000
0#
0-
02
#30000
1#
1-
12
06
15
07
18
13
11
00
1/
0.
1!
0"
#40000
0#
0-
02
#50000
1#
1-
12
16
08
03
04
10
1.
1"
#60000
0#
0-
02
#70000
1#
1-
12
06
05
17
18
13
01
00
0/
0.
0!
0"
#80000
0#
0-
02
#90000
1#
1-
12
16
08
03
14
10
1.
1"
#100000
0#
0-
02
#110000
1#
1-
12
06
15
07
18
13
11
00
1/
0.
1!
0"
#120000
0#
0-
02
#130000
1#
1-
12
16
08
03
04
10
1.
1"
#140000
0#
0-
02
#150000
1#
1-
12
06
05
17
18
13
01
00
0/
0.
0!
0"
#160000
0#
0-
02
#170000
1#
1-
12
16
08
03
14
10
1.
1"
#180000
0#
0-
02
#190000
1#
1-
12
06
15
07
18
13
11
00
1/
0.
1!
0"
#200000
0#
0-
02
#210000
1#
1-
12
16
08
03
04
10
1.
1"
#220000
0#
0-
02
#230000
1#
1-
12
06
05
17
18
13
01
00
0/
0.
0!
0"
#240000
0#
0-
02
#250000
1#
1-
12
16
08
03
14
10
1.
1"
#260000
0#
0-
02
#270000
1#
1-
12
06
15
07
18
13
11
00
1/
0.
1!
0"
#280000
0#
0-
02
#290000
1#
1-
12
16
08
03
04
10
1.
1"
#300000
0#
0-
02
#310000
1#
1-
12
06
05
17
18
13
01
00
0/
0.
0!
0"
#320000
0#
0-
02
#330000
1#
1-
12
16
08
03
14
10
1.
1"
#340000
0#
0-
02
#350000
1#
1-
12
06
15
07
18
13
11
00
1/
0.
1!
0"
#360000
0#
0-
02
#370000
1#
1-
12
16
08
03
04
10
1.
1"
#380000
0#
0-
02
#390000
1#
1-
12
06
05
17
18
13
01
00
0/
0.
0!
0"
#400000
0#
0-
02
#410000
1#
1-
12
16
08
03
14
10
1.
1"
#420000
0#
0-
02
#430000
1#
1-
12
06
15
07
18
13
11
00
1/
0.
1!
0"
#440000
0#
0-
02
#450000
1#
1-
12
16
08
03
04
10
1.
1"
#460000
0#
0-
02
#470000
1#
1-
12
06
05
17
18
13
01
00
0/
0.
0!
0"
#480000
0#
0-
02
#490000
1#
1-
12
16
08
03
14
10
1.
1"
#500000
0#
0-
02
#510000
1#
1-
12
06
15
07
18
13
11
00
1/
0.
1!
0"
#520000
0#
0-
02
#530000
1#
1-
12
16
08
03
04
10
1.
1"
#540000
0#
0-
02
#550000
1#
1-
12
06
05
17
18
13
01
00
0/
0.
0!
0"
#560000
0#
0-
02
#570000
1#
1-
12
16
08
03
14
10
1.
1"
#580000
0#
0-
02
#590000
1#
1-
12
06
15
07
18
13
11
00
1/
0.
1!
0"
#600000
0#
0-
02
#610000
1#
1-
12
16
08
03
04
10
1.
1"
#620000
0#
0-
02
#630000
1#
1-
12
06
05
17
18
13
01
00
0/
0.
0!
0"
#640000
0#
0-
02
#650000
1#
1-
12
16
08
03
14
10
1.
1"
#660000
0#
0-
02
#670000
1#
1-
12
06
15
07
18
13
11
00
1/
0.
1!
0"
#680000
0#
0-
02
#690000
1#
1-
12
16
08
03
04
10
1.
1"
#700000
0#
0-
02
#710000
1#
1-
12
06
05
17
18
13
01
00
0/
0.
0!
0"
#720000
0#
0-
02
#730000
1#
1-
12
16
08
03
14
10
1.
1"
#740000
0#
0-
02
#750000
1#
1-
12
06
15
07
18
13
11
00
1/
0.
1!
0"
#760000
0#
0-
02
#770000
1#
1-
12
16
08
03
04
10
1.
1"
#780000
0#
0-
02
#790000
1#
1-
12
06
05
17
18
13
01
00
0/
0.
0!
0"
#800000
0#
0-
02
#810000
1#
1-
12
16
08
03
14
10
1.
1"
#820000
0#
0-
02
#830000
1#
1-
12
06
15
07
18
13
11
00
1/
0.
1!
0"
#840000
0#
0-
02
#850000
1#
1-
12
16
08
03
04
10
1.
1"
#860000
0#
0-
02
#870000
1#
1-
12
06
05
17
18
13
01
00
0/
0.
0!
0"
#880000
0#
0-
02
#890000
1#
1-
12
16
08
03
14
10
1.
1"
#900000
0#
0-
02
#910000
1#
1-
12
06
15
07
18
13
11
00
1/
0.
1!
0"
#920000
0#
0-
02
#930000
1#
1-
12
16
08
03
04
10
1.
1"
#940000
0#
0-
02
#950000
1#
1-
12
06
05
17
18
13
01
00
0/
0.
0!
0"
#960000
0#
0-
02
#970000
1#
1-
12
16
08
03
14
10
1.
1"
#980000
0#
0-
02
#990000
1#
1-
12
06
15
07
18
13
11
00
1/
0.
1!
0"
