lijiantao2018114266_08/simulation/qsim/lijiantao2018114266_08.msim.vcd
$comment
	File created using the following command:
		vcd file lijiantao2018114266_08.msim.vcd -direction
$end
$date
	Thu Jul 16 22:56:05 2020
$end
$version
	ModelSim Version 10.5b
$end
$timescale
	1ps
$end

$scope module lijiantao2018114266_08_vhd_vec_tst $end
$var wire 1 ! CLK_1H $end
$var wire 1 " HGEWEI [3] $end
$var wire 1 # HGEWEI [2] $end
$var wire 1 $ HGEWEI [1] $end
$var wire 1 % HGEWEI [0] $end
$var wire 1 & HSHIWEI [3] $end
$var wire 1 ' HSHIWEI [2] $end
$var wire 1 ( HSHIWEI [1] $end
$var wire 1 ) HSHIWEI [0] $end

$scope module i1 $end
$var wire 1 * gnd $end
$var wire 1 + vcc $end
$var wire 1 , unknown $end
$var wire 1 - devoe $end
$var wire 1 . devclrn $end
$var wire 1 / devpor $end
$var wire 1 0 ww_devoe $end
$var wire 1 1 ww_devclrn $end
$var wire 1 2 ww_devpor $end
$var wire 1 3 ww_CLK_1H $end
$var wire 1 4 ww_HGEWEI [3] $end
$var wire 1 5 ww_HGEWEI [2] $end
$var wire 1 6 ww_HGEWEI [1] $end
$var wire 1 7 ww_HGEWEI [0] $end
$var wire 1 8 ww_HSHIWEI [3] $end
$var wire 1 9 ww_HSHIWEI [2] $end
$var wire 1 : ww_HSHIWEI [1] $end
$var wire 1 ; ww_HSHIWEI [0] $end
$var wire 1 < \HGEWEI[0]~output_o\ $end
$var wire 1 = \HGEWEI[1]~output_o\ $end
$var wire 1 > \HGEWEI[2]~output_o\ $end
$var wire 1 ? \HGEWEI[3]~output_o\ $end
$var wire 1 @ \HSHIWEI[0]~output_o\ $end
$var wire 1 A \HSHIWEI[1]~output_o\ $end
$var wire 1 B \HSHIWEI[2]~output_o\ $end
$var wire 1 C \HSHIWEI[3]~output_o\ $end
$var wire 1 D \CLK_1H~input_o\ $end
$var wire 1 E \TMP1[0]~3_combout\ $end
$var wire 1 F \TMP1~2_combout\ $end
$var wire 1 G \Equal2~0_combout\ $end
$var wire 1 H \Equal2~1_combout\ $end
$var wire 1 I \TMP2[0]~0_combout\ $end
$var wire 1 J \TMP2[1]~1_combout\ $end
$var wire 1 K \TMP2[2]~2_combout\ $end
$var wire 1 L \TMP2[2]~3_combout\ $end
$var wire 1 M \TMP2[3]~4_combout\ $end
$var wire 1 N \process_0~0_combout\ $end
$var wire 1 O \TMP1~1_combout\ $end
$var wire 1 P \TMP1~0_combout\ $end
$var wire 1 Q TMP1 [3] $end
$var wire 1 R TMP1 [2] $end
$var wire 1 S TMP1 [1] $end
$var wire 1 T TMP1 [0] $end
$var wire 1 U TMP2 [3] $end
$var wire 1 V TMP2 [2] $end
$var wire 1 W TMP2 [1] $end
$var wire 1 X TMP2 [0] $end
$var wire 1 Y \ALT_INV_TMP2[2]~2_combout\ $end
$var wire 1 Z \ALT_INV_Equal2~1_combout\ $end
$var wire 1 [ \ALT_INV_Equal2~0_combout\ $end
$var wire 1 \ \ALT_INV_process_0~0_combout\ $end
$var wire 1 ] ALT_INV_TMP2 [3] $end
$var wire 1 ^ ALT_INV_TMP2 [2] $end
$var wire 1 _ ALT_INV_TMP2 [1] $end
$var wire 1 ` ALT_INV_TMP2 [0] $end
$var wire 1 a ALT_INV_TMP1 [3] $end
$var wire 1 b ALT_INV_TMP1 [2] $end
$var wire 1 c ALT_INV_TMP1 [1] $end
$var wire 1 d ALT_INV_TMP1 [0] $end
$upscope $end
$upscope $end
$enddefinitions $end
#0
$dumpvars
0!
0*
1+
x,
1-
1.
1/
10
11
12
03
0<
0=
0>
0?
0@
0A
0B
0C
0D
1E
0F
0G
0H
0I
0J
0K
0L
0M
0N
0O
0P
1Y
1Z
1[
1\
04
05
06
07
08
09
0:
0;
0Q
0R
0S
0T
0U
0V
0W
0X
1]
1^
1_
1`
1a
1b
1c
1d
0"
0#
0$
0%
0&
0'
0(
0)
$end
#5000
1!
13
1D
1T
0d
0E
1G
1P
0[
1<
17
1%
#10000
0!
03
0D
#15000
1!
13
1D
0T
1S
0c
1d
1E
0G
1[
1=
0<
16
07
0%
1$
#20000
0!
03
0D
#25000
1!
13
1D
1T
0d
0E
1G
1O
0P
0[
1<
17
1%
#30000
0!
03
0D
#35000
1!
13
1D
0T
1R
0S
1c
0b
1d
1E
0G
1[
0=
1>
0<
06
15
07
0%
0$
1#
#40000
0!
03
0D
#45000
1!
13
1D
1T
0d
0E
1P
1<
17
1%
#50000
0!
03
0D
#55000
1!
13
1D
0T
1S
0c
1d
1E
1=
0<
16
07
0%
1$
#60000
0!
03
0D
#65000
1!
13
1D
1T
0d
0E
1F
0O
0P
1<
17
1%
#70000
0!
03
0D
#75000
1!
13
1D
0T
1Q
0R
0S
1c
1b
0a
1d
1E
1H
0Z
0=
0>
1?
0<
06
05
14
07
0%
0$
0#
1"
#80000
0!
03
0D
#85000
1!
13
1D
1T
0d
0E
0F
1G
0[
1<
1I
17
1%
#90000
0!
03
0D
#95000
1!
13
1D
0T
0Q
1X
0`
1a
1d
1E
0G
0H
0I
1J
1Z
1[
1@
0?
0<
1I
0J
1;
04
07
1)
0%
0"
#100000
0!
03
0D
#105000
1!
13
1D
1T
0d
0E
1G
1P
0[
1<
17
1%
#110000
0!
03
0D
#115000
1!
13
1D
0T
1S
0c
1d
1E
0G
1[
1=
0<
16
07
0%
1$
#120000
0!
03
0D
#125000
1!
13
1D
1T
0d
0E
1G
1O
0P
0[
1<
17
1%
#130000
0!
03
0D
#135000
1!
13
1D
0T
1R
0S
1c
0b
1d
1E
0G
1[
0=
1>
0<
06
15
07
0%
0$
1#
#140000
0!
03
0D
#145000
1!
13
1D
1T
0d
0E
1P
1<
17
1%
#150000
0!
03
0D
#155000
1!
13
1D
0T
1S
0c
1d
1E
1=
0<
16
07
0%
1$
#160000
0!
03
0D
#165000
1!
13
1D
1T
0d
0E
1F
0O
0P
1<
17
1%
#170000
0!
03
0D
#175000
1!
13
1D
0T
1Q
0R
0S
1c
1b
0a
1d
1E
1H
0Z
0=
0>
1?
0<
06
05
14
07
0%
0$
0#
1"
#180000
0!
03
0D
#185000
1!
13
1D
1T
0d
0E
0F
1G
0[
1<
0I
1J
17
1%
#190000
0!
03
0D
#195000
1!
13
1D
0T
0Q
0X
1W
0_
1`
1a
1d
1E
0G
0H
1I
1Z
1[
1A
0@
0?
0<
0I
1:
0;
04
07
0)
1(
0%
0"
#200000
0!
03
0D
#205000
1!
13
1D
1T
0d
0E
1G
1P
0[
1<
17
1%
#210000
0!
03
0D
#215000
1!
13
1D
0T
1S
0c
1d
1E
0G
1N
0\
1[
1=
0<
16
07
0%
1$
#220000
0!
03
0D
#225000
1!
13
1D
1T
0d
0E
1G
0P
0[
1<
0J
17
1%
#230000
0!
03
0D
#235000
1!
13
1D
0T
0W
0S
1c
1_
1d
1E
0G
0N
1\
1[
0=
0A
0<
06
0:
07
0%
0$
0(
#240000
0!
03
0D
#245000
1!
13
1D
1T
0d
0E
1G
1P
0[
1<
17
1%
#250000
0!
03
0D
#255000
1!
13
1D
0T
1S
0c
1d
1E
0G
1[
1=
0<
16
07
0%
1$
#260000
0!
03
0D
#265000
1!
13
1D
1T
0d
0E
1G
1O
0P
0[
1<
17
1%
#270000
0!
03
0D
#275000
1!
13
1D
0T
1R
0S
1c
0b
1d
1E
0G
1[
0=
1>
0<
06
15
07
0%
0$
1#
#280000
0!
03
0D
#285000
1!
13
1D
1T
0d
0E
1P
1<
17
1%
#290000
0!
03
0D
#295000
1!
13
1D
0T
1S
0c
1d
1E
1=
0<
16
07
0%
1$
#300000
0!
03
0D
#305000
1!
13
1D
1T
0d
0E
1F
0O
0P
1<
17
1%
#310000
0!
03
0D
#315000
1!
13
1D
0T
1Q
0R
0S
1c
1b
0a
1d
1E
1H
0Z
0=
0>
1?
0<
06
05
14
07
0%
0$
0#
1"
#320000
0!
03
0D
#325000
1!
13
1D
1T
0d
0E
0F
1G
0[
1<
1I
17
1%
#330000
0!
03
0D
#335000
1!
13
1D
0T
0Q
1X
0`
1a
1d
1E
0G
0H
0I
1J
1Z
1[
1@
0?
0<
1I
0J
1;
04
07
1)
0%
0"
#340000
0!
03
0D
#345000
1!
13
1D
1T
0d
0E
1G
1P
0[
1<
17
1%
#350000
0!
03
0D
#355000
1!
13
1D
0T
1S
0c
1d
1E
0G
1[
1=
0<
16
07
0%
1$
#360000
0!
03
0D
#365000
1!
13
1D
1T
0d
0E
1G
1O
0P
0[
1<
17
1%
#370000
0!
03
0D
#375000
1!
13
1D
0T
1R
0S
1c
0b
1d
1E
0G
1[
0=
1>
0<
06
15
07
0%
0$
1#
#380000
0!
03
0D
#385000
1!
13
1D
1T
0d
0E
1P
1<
17
1%
#390000
0!
03
0D
#395000
1!
13
1D
0T
1S
0c
1d
1E
1=
0<
16
07
0%
1$
#400000
0!
03
0D
#405000
1!
13
1D
1T
0d
0E
1F
0O
0P
1<
17
1%
#410000
0!
03
0D
#415000
1!
13
1D
0T
1Q
0R
0S
1c
1b
0a
1d
1E
1H
0Z
0=
0>
1?
0<
06
05
14
07
0%
0$
0#
1"
#420000
0!
03
0D
#425000
1!
13
1D
1T
0d
0E
0F
1G
0[
1<
0I
1J
17
1%
#430000
0!
03
0D
#435000
1!
13
1D
0T
0Q
0X
1W
0_
1`
1a
1d
1E
0G
0H
1I
1Z
1[
1A
0@
0?
0<
0I
1:
0;
04
07
0)
1(
0%
0"
#440000
0!
03
0D
#445000
1!
13
1D
1T
0d
0E
1G
1P
0[
1<
17
1%
#450000
0!
03
0D
#455000
1!
13
1D
0T
1S
0c
1d
1E
0G
1N
0\
1[
1=
0<
16
07
0%
1$
#460000
0!
03
0D
#465000
1!
13
1D
1T
0d
0E
1G
0P
0[
1<
0J
17
1%
#470000
0!
03
0D
#475000
1!
13
1D
0T
0W
0S
1c
1_
1d
1E
0G
0N
1\
1[
0=
0A
0<
06
0:
07
0%
0$
0(
#480000
0!
03
0D
#485000
1!
13
1D
1T
0d
0E
1G
1P
0[
1<
17
1%
#490000
0!
03
0D
#495000
1!
13
1D
0T
1S
0c
1d
1E
0G
1[
1=
0<
16
07
0%
1$
#500000
0!
03
0D
#505000
1!
13
1D
1T
0d
0E
1G
1O
0P
0[
1<
17
1%
#510000
0!
03
0D
#515000
1!
13
1D
0T
1R
0S
1c
0b
1d
1E
0G
1[
0=
1>
0<
06
15
07
0%
0$
1#
#520000
0!
03
0D
#525000
1!
13
1D
1T
0d
0E
1P
1<
17
1%
#530000
0!
03
0D
#535000
1!
13
1D
0T
1S
0c
1d
1E
1=
0<
16
07
0%
1$
#540000
0!
03
0D
#545000
1!
13
1D
1T
0d
0E
1F
0O
0P
1<
17
1%
#550000
0!
03
0D
#555000
1!
13
1D
0T
1Q
0R
0S
1c
1b
0a
1d
1E
1H
0Z
0=
0>
1?
0<
06
05
14
07
0%
0$
0#
1"
#560000
0!
03
0D
#565000
1!
13
1D
1T
0d
0E
0F
1G
0[
1<
1I
17
1%
#570000
0!
03
0D
#575000
1!
13
1D
0T
0Q
1X
0`
1a
1d
1E
0G
0H
0I
1J
1Z
1[
1@
0?
0<
1I
0J
1;
04
07
1)
0%
0"
#580000
0!
03
0D
#585000
1!
13
1D
1T
0d
0E
1G
1P
0[
1<
17
1%
#590000
0!
03
0D
#595000
1!
13
1D
0T
1S
0c
1d
1E
0G
1[
1=
0<
16
07
0%
1$
#600000
0!
03
0D
#605000
1!
13
1D
1T
0d
0E
1G
1O
0P
0[
1<
17
1%
#610000
0!
03
0D
#615000
1!
13
1D
0T
1R
0S
1c
0b
1d
1E
0G
1[
0=
1>
0<
06
15
07
0%
0$
1#
#620000
0!
03
0D
#625000
1!
13
1D
1T
0d
0E
1P
1<
17
1%
#630000
0!
03
0D
#635000
1!
13
1D
0T
1S
0c
1d
1E
1=
0<
16
07
0%
1$
#640000
0!
03
0D
#645000
1!
13
1D
1T
0d
0E
1F
0O
0P
1<
17
1%
#650000
0!
03
0D
#655000
1!
13
1D
0T
1Q
0R
0S
1c
1b
0a
1d
1E
1H
0Z
0=
0>
1?
0<
06
05
14
07
0%
0$
0#
1"
#660000
0!
03
0D
#665000
1!
13
1D
1T
0d
0E
0F
1G
0[
1<
0I
1J
17
1%
#670000
0!
03
0D
#675000
1!
13
1D
0T
0Q
0X
1W
0_
1`
1a
1d
1E
0G
0H
1I
1Z
1[
1A
0@
0?
0<
0I
1:
0;
04
07
0)
1(
0%
0"
#680000
0!
03
0D
#685000
1!
13
1D
1T
0d
0E
1G
1P
0[
1<
17
1%
#690000
0!
03
0D
#695000
1!
13
1D
0T
1S
0c
1d
1E
0G
1N
0\
1[
1=
0<
16
07
0%
1$
#700000
0!
03
0D
#705000
1!
13
1D
1T
0d
0E
1G
0P
0[
1<
0J
17
1%
#710000
0!
03
0D
#715000
1!
13
1D
0T
0W
0S
1c
1_
1d
1E
0G
0N
1\
1[
0=
0A
0<
06
0:
07
0%
0$
0(
#720000
0!
03
0D
#725000
1!
13
1D
1T
0d
0E
1G
1P
0[
1<
17
1%
#730000
0!
03
0D
#735000
1!
13
1D
0T
1S
0c
1d
1E
0G
1[
1=
0<
16
07
0%
1$
#740000
0!
03
0D
#745000
1!
13
1D
1T
0d
0E
1G
1O
0P
0[
1<
17
1%
#750000
0!
03
0D
#755000
1!
13
1D
0T
1R
0S
1c
0b
1d
1E
0G
1[
0=
1>
0<
06
15
07
0%
0$
1#
#760000
0!
03
0D
#765000
1!
13
1D
1T
0d
0E
1P
1<
17
1%
#770000
0!
03
0D
#775000
1!
13
1D
0T
1S
0c
1d
1E
1=
0<
16
07
0%
1$
#780000
0!
03
0D
#785000
1!
13
1D
1T
0d
0E
1F
0O
0P
1<
17
1%
#790000
0!
03
0D
#795000
1!
13
1D
0T
1Q
0R
0S
1c
1b
0a
1d
1E
1H
0Z
0=
0>
1?
0<
06
05
14
07
0%
0$
0#
1"
#800000
0!
03
0D
#805000
1!
13
1D
1T
0d
0E
0F
1G
0[
1<
1I
17
1%
#810000
0!
03
0D
#815000
1!
13
1D
0T
0Q
1X
0`
1a
1d
1E
0G
0H
0I
1J
1Z
1[
1@
0?
0<
1I
0J
1;
04
07
1)
0%
0"
#820000
0!
03
0D
#825000
1!
13
1D
1T
0d
0E
1G
1P
0[
1<
17
1%
#830000
0!
03
0D
#835000
1!
13
1D
0T
1S
0c
1d
1E
0G
1[
1=
0<
16
07
0%
1$
#840000
0!
03
0D
#845000
1!
13
1D
1T
0d
0E
1G
1O
0P
0[
1<
17
1%
#850000
0!
03
0D
#855000
1!
13
1D
0T
1R
0S
1c
0b
1d
1E
0G
1[
0=
1>
0<
06
15
07
0%
0$
1#
#860000
0!
03
0D
#865000
1!
13
1D
1T
0d
0E
1P
1<
17
1%
#870000
0!
03
0D
#875000
1!
13
1D
0T
1S
0c
1d
1E
1=
0<
16
07
0%
1$
#880000
0!
03
0D
#885000
1!
13
1D
1T
0d
0E
1F
0O
0P
1<
17
1%
#890000
0!
03
0D
#895000
1!
13
1D
0T
1Q
0R
0S
1c
1b
0a
1d
1E
1H
0Z
0=
0>
1?
0<
06
05
14
07
0%
0$
0#
1"
#900000
0!
03
0D
#905000
1!
13
1D
1T
0d
0E
0F
1G
0[
1<
0I
1J
17
1%
#910000
0!
03
0D
#915000
1!
13
1D
0T
0Q
0X
1W
0_
1`
1a
1d
1E
0G
0H
1I
1Z
1[
1A
0@
0?
0<
0I
1:
0;
04
07
0)
1(
0%
0"
#920000
0!
03
0D
#925000
1!
13
1D
1T
0d
0E
1G
1P
0[
1<
17
1%
#930000
0!
03
0D
#935000
1!
13
1D
0T
1S
0c
1d
1E
0G
1N
0\
1[
1=
0<
16
07
0%
1$
#940000
0!
03
0D
#945000
1!
13
1D
1T
0d
0E
1G
0P
0[
1<
0J
17
1%
#950000
0!
03
0D
#955000
1!
13
1D
0T
0W
0S
1c
1_
1d
1E
0G
0N
1\
1[
0=
0A
0<
06
0:
07
0%
0$
0(
#960000
0!
03
0D
#965000
1!
13
1D
1T
0d
0E
1G
1P
0[
1<
17
1%
#970000
0!
03
0D
#975000
1!
13
1D
0T
1S
0c
1d
1E
0G
1[
1=
0<
16
07
0%
1$
#980000
0!
03
0D
#985000
1!
13
1D
1T
0d
0E
1G
1O
0P
0[
1<
17
1%
#990000
0!
03
0D
#995000
1!
13
1D
0T
1R
0S
1c
0b
1d
1E
0G
1[
0=
1>
0<
06
15
07
0%
0$
1#
