lijiantao2018114266_07/simulation/qsim/lijiantao2018114266_07.msim.vcd
$comment
	File created using the following command:
		vcd file lijiantao2018114266_07.msim.vcd -direction
$end
$date
	Thu Jul 16 22:55:10 2020
$end
$version
	ModelSim Version 10.5b
$end
$timescale
	1ps
$end

$scope module lijiantao2018114266_07_vlg_vec_tst $end
$var reg 1 ! CLK_1HZ $end
$var wire 1 " ACC $end
$var wire 1 # GEWEI [3] $end
$var wire 1 $ GEWEI [2] $end
$var wire 1 % GEWEI [1] $end
$var wire 1 & GEWEI [0] $end
$var wire 1 ' SHIWEI [3] $end
$var wire 1 ( SHIWEI [2] $end
$var wire 1 ) SHIWEI [1] $end
$var wire 1 * SHIWEI [0] $end

$scope module i1 $end
$var wire 1 + gnd $end
$var wire 1 , vcc $end
$var wire 1 - unknown $end
$var tri1 1 . devclrn $end
$var tri1 1 / devpor $end
$var tri1 1 0 devoe $end
$var wire 1 1 SHIWEI[0]~output_o $end
$var wire 1 2 SHIWEI[1]~output_o $end
$var wire 1 3 SHIWEI[2]~output_o $end
$var wire 1 4 SHIWEI[3]~output_o $end
$var wire 1 5 GEWEI[0]~output_o $end
$var wire 1 6 GEWEI[1]~output_o $end
$var wire 1 7 GEWEI[2]~output_o $end
$var wire 1 8 GEWEI[3]~output_o $end
$var wire 1 9 ACC~output_o $end
$var wire 1 : CLK_1HZ~input_o $end
$var wire 1 ; TMP2[0]~3_combout $end
$var wire 1 < TMP1[0]~3_combout $end
$var wire 1 = TMP1[2]~1_combout $end
$var wire 1 > TMP1~2_combout $end
$var wire 1 ? TMP1~0_combout $end
$var wire 1 @ Equal0~0_combout $end
$var wire 1 A TMP2[3]~2_combout $end
$var wire 1 B TMP2~1_combout $end
$var wire 1 C TMP2~0_combout $end
$var wire 1 D CO~0_combout $end
$var wire 1 E CO~q $end
$var wire 1 F TMP2 [3] $end
$var wire 1 G TMP2 [2] $end
$var wire 1 H TMP2 [1] $end
$var wire 1 I TMP2 [0] $end
$var wire 1 J TMP1 [3] $end
$var wire 1 K TMP1 [2] $end
$var wire 1 L TMP1 [1] $end
$var wire 1 M TMP1 [0] $end
$upscope $end
$upscope $end
$enddefinitions $end
#0
$dumpvars
0!
0"
0&
0%
0$
0#
0*
0)
0(
0'
0+
1,
x-
1.
1/
10
01
02
03
04
05
06
07
08
09
0:
1;
1<
0=
0>
0?
0@
0A
0B
0C
0D
0E
0I
0H
0G
0F
0M
0L
0K
0J
$end
#5000
1!
1:
1M
15
1&
1?
0<
#10000
0!
0:
#15000
1!
1:
1L
0M
05
16
1%
0&
1<
#20000
0!
0:
#25000
1!
1:
1M
15
1&
0?
1=
0<
#30000
0!
0:
#35000
1!
1:
0L
1K
0M
05
17
06
0%
1$
0&
1<
#40000
0!
0:
#45000
1!
1:
1M
15
1&
1?
0<
#50000
0!
0:
#55000
1!
1:
1L
0M
05
16
1%
0&
1<
#60000
0!
0:
#65000
1!
1:
1M
15
1&
0?
1>
0=
0<
#70000
0!
0:
#75000
1!
1:
0L
1J
0K
0M
05
07
18
06
0%
1#
0$
0&
1<
#80000
0!
0:
#85000
1!
1:
1M
15
1@
1&
0>
0<
#90000
0!
0:
#95000
1!
1:
1I
0J
0M
05
08
11
0@
1*
0#
0&
1<
1C
0;
#100000
0!
0:
#105000
1!
1:
1M
15
1&
1?
0<
#110000
0!
0:
#115000
1!
1:
1L
0M
05
16
1%
0&
1<
#120000
0!
0:
#125000
1!
1:
1M
15
1&
0?
1=
0<
#130000
0!
0:
#135000
1!
1:
0L
1K
0M
05
17
06
0%
1$
0&
1<
#140000
0!
0:
#145000
1!
1:
1M
15
1&
1?
0<
#150000
0!
0:
#155000
1!
1:
1L
0M
05
16
1%
0&
1<
#160000
0!
0:
#165000
1!
1:
1M
15
1&
0?
1>
0=
0<
#170000
0!
0:
#175000
1!
1:
0L
1J
0K
0M
05
07
18
06
0%
1#
0$
0&
1<
#180000
0!
0:
#185000
1!
1:
1M
15
1@
1&
0>
0<
#190000
0!
0:
#195000
1!
1:
1H
0I
0J
0M
05
08
01
12
0@
1)
0*
0#
0&
1<
1;
#200000
0!
0:
#205000
1!
1:
1M
15
1&
1?
0<
#210000
0!
0:
#215000
1!
1:
1L
0M
05
16
1%
0&
1<
#220000
0!
0:
#225000
1!
1:
1M
15
1&
0?
1=
0<
#230000
0!
0:
#235000
1!
1:
0L
1K
0M
05
17
06
0%
1$
0&
1<
#240000
0!
0:
#245000
1!
1:
1M
15
1&
1?
0<
#250000
0!
0:
#255000
1!
1:
1L
0M
05
16
1%
0&
1<
#260000
0!
0:
#265000
1!
1:
1M
15
1&
0?
1>
0=
0<
#270000
0!
0:
#275000
1!
1:
0L
1J
0K
0M
05
07
18
06
0%
1#
0$
0&
1<
#280000
0!
0:
#285000
1!
1:
1M
15
1@
1&
0>
0<
#290000
0!
0:
#295000
1!
1:
1I
0J
0M
05
08
11
0@
1*
0#
0&
1<
0C
1B
0;
#300000
0!
0:
#305000
1!
1:
1M
15
1&
1?
0<
#310000
0!
0:
#315000
1!
1:
1L
0M
05
16
1%
0&
1<
#320000
0!
0:
#325000
1!
1:
1M
15
1&
0?
1=
0<
#330000
0!
0:
#335000
1!
1:
0L
1K
0M
05
17
06
0%
1$
0&
1<
#340000
0!
0:
#345000
1!
1:
1M
15
1&
1?
0<
#350000
0!
0:
#355000
1!
1:
1L
0M
05
16
1%
0&
1<
#360000
0!
0:
#365000
1!
1:
1M
15
1&
0?
1>
0=
0<
#370000
0!
0:
#375000
1!
1:
0L
1J
0K
0M
05
07
18
06
0%
1#
0$
0&
1<
#380000
0!
0:
#385000
1!
1:
1M
15
1@
1&
0>
0<
#390000
0!
0:
#395000
1!
1:
0H
1G
0I
0J
0M
05
08
01
13
02
0@
0)
1(
0*
0#
0&
1<
1;
#400000
0!
0:
#405000
1!
1:
1M
15
1&
1?
0<
#410000
0!
0:
#415000
1!
1:
1L
0M
05
16
1%
0&
1<
#420000
0!
0:
#425000
1!
1:
1M
15
1&
0?
1=
0<
#430000
0!
0:
#435000
1!
1:
0L
1K
0M
05
17
06
0%
1$
0&
1<
#440000
0!
0:
#445000
1!
1:
1M
15
1&
1?
0<
#450000
0!
0:
#455000
1!
1:
1L
0M
05
16
1%
0&
1<
#460000
0!
0:
#465000
1!
1:
1M
15
1&
0?
1>
0=
0<
#470000
0!
0:
#475000
1!
1:
0L
1J
0K
0M
05
07
18
06
0%
1#
0$
0&
1<
#480000
0!
0:
#485000
1!
1:
1M
15
1@
1&
0>
0<
#490000
0!
0:
#495000
1!
1:
1I
0J
0M
05
08
11
0@
1*
0#
0&
1<
1D
0B
0;
0D
#500000
0!
0:
#505000
1!
1:
1M
15
1&
1?
0<
#510000
0!
0:
#515000
1!
1:
1L
0M
05
16
1%
0&
1<
#520000
0!
0:
#525000
1!
1:
1M
15
1&
0?
1=
0<
#530000
0!
0:
#535000
1!
1:
0L
1K
0M
05
17
06
0%
1$
0&
1<
#540000
0!
0:
#545000
1!
1:
1M
15
1&
1?
0<
#550000
0!
0:
#555000
1!
1:
1L
0M
05
16
1%
0&
1<
#560000
0!
0:
#565000
1!
1:
1M
15
1&
0?
1>
0=
0<
#570000
0!
0:
#575000
1!
1:
0L
1J
0K
0M
05
07
18
06
0%
1#
0$
0&
1<
#580000
0!
0:
#585000
1!
1:
1M
15
1@
1&
0>
0<
1D
#590000
0!
0:
#595000
1!
1:
1E
0G
0I
0J
0M
05
08
01
03
19
0@
1"
0(
0*
0#
0&
1<
0D
1;
#600000
0!
0:
#605000
1!
1:
0E
1M
15
09
0"
1&
1?
0<
#610000
0!
0:
#615000
1!
1:
1L
0M
05
16
1%
0&
1<
#620000
0!
0:
#625000
1!
1:
1M
15
1&
0?
1=
0<
#630000
0!
0:
#635000
1!
1:
0L
1K
0M
05
17
06
0%
1$
0&
1<
#640000
0!
0:
#645000
1!
1:
1M
15
1&
1?
0<
#650000
0!
0:
#655000
1!
1:
1L
0M
05
16
1%
0&
1<
#660000
0!
0:
#665000
1!
1:
1M
15
1&
0?
1>
0=
0<
#670000
0!
0:
#675000
1!
1:
0L
1J
0K
0M
05
07
18
06
0%
1#
0$
0&
1<
#680000
0!
0:
#685000
1!
1:
1M
15
1@
1&
0>
0<
#690000
0!
0:
#695000
1!
1:
1I
0J
0M
05
08
11
0@
1*
0#
0&
1<
1C
0;
#700000
0!
0:
#705000
1!
1:
1M
15
1&
1?
0<
#710000
0!
0:
#715000
1!
1:
1L
0M
05
16
1%
0&
1<
#720000
0!
0:
#725000
1!
1:
1M
15
1&
0?
1=
0<
#730000
0!
0:
#735000
1!
1:
0L
1K
0M
05
17
06
0%
1$
0&
1<
#740000
0!
0:
#745000
1!
1:
1M
15
1&
1?
0<
#750000
0!
0:
#755000
1!
1:
1L
0M
05
16
1%
0&
1<
#760000
0!
0:
#765000
1!
1:
1M
15
1&
0?
1>
0=
0<
#770000
0!
0:
#775000
1!
1:
0L
1J
0K
0M
05
07
18
06
0%
1#
0$
0&
1<
#780000
0!
0:
#785000
1!
1:
1M
15
1@
1&
0>
0<
#790000
0!
0:
#795000
1!
1:
1H
0I
0J
0M
05
08
01
12
0@
1)
0*
0#
0&
1<
1;
#800000
0!
0:
#805000
1!
1:
1M
15
1&
1?
0<
#810000
0!
0:
#815000
1!
1:
1L
0M
05
16
1%
0&
1<
#820000
0!
0:
#825000
1!
1:
1M
15
1&
0?
1=
0<
#830000
0!
0:
#835000
1!
1:
0L
1K
0M
05
17
06
0%
1$
0&
1<
#840000
0!
0:
#845000
1!
1:
1M
15
1&
1?
0<
#850000
0!
0:
#855000
1!
1:
1L
0M
05
16
1%
0&
1<
#860000
0!
0:
#865000
1!
1:
1M
15
1&
0?
1>
0=
0<
#870000
0!
0:
#875000
1!
1:
0L
1J
0K
0M
05
07
18
06
0%
1#
0$
0&
1<
#880000
0!
0:
#885000
1!
1:
1M
15
1@
1&
0>
0<
#890000
0!
0:
#895000
1!
1:
1I
0J
0M
05
08
11
0@
1*
0#
0&
1<
0C
1B
0;
#900000
0!
0:
#905000
1!
1:
1M
15
1&
1?
0<
#910000
0!
0:
#915000
1!
1:
1L
0M
05
16
1%
0&
1<
#920000
0!
0:
#925000
1!
1:
1M
15
1&
0?
1=
0<
#930000
0!
0:
#935000
1!
1:
0L
1K
0M
05
17
06
0%
1$
0&
1<
#940000
0!
0:
#945000
1!
1:
1M
15
1&
1?
0<
#950000
0!
0:
#955000
1!
1:
1L
0M
05
16
1%
0&
1<
#960000
0!
0:
#965000
1!
1:
1M
15
1&
0?
1>
0=
0<
#970000
0!
0:
#975000
1!
1:
0L
1J
0K
0M
05
07
18
06
0%
1#
0$
0&
1<
#980000
0!
0:
#985000
1!
1:
1M
15
1@
1&
0>
0<
#990000
0!
0:
#995000
1!
1:
0H
1G
0I
0J
0M
05
08
01
13
02
0@
0)
1(
0*
0#
0&
1<
1;
