lijiantao2018114266_09/simulation/qsim/lijiantao2018114266_09.msim.vcd
$comment
	File created using the following command:
		vcd file lijiantao2018114266_09.msim.vcd -direction
$end
$date
	Wed Jul 08 20:12:26 2020
$end
$version
	ModelSim Version 10.5b
$end
$timescale
	1ps
$end

$scope module lijiantao2018114266_09_vlg_vec_tst $end
$var reg 1 ! CLK $end
$var reg 1 " CLR $end
$var reg 3 # S [2:0] $end
$var reg 1 $ ST $end
$var wire 1 % R0 [3] $end
$var wire 1 & R0 [2] $end
$var wire 1 ' R0 [1] $end
$var wire 1 ( R0 [0] $end
$var wire 1 ) R1 [3] $end
$var wire 1 * R1 [2] $end
$var wire 1 + R1 [1] $end
$var wire 1 , R1 [0] $end
$var wire 1 - R2 [3] $end
$var wire 1 . R2 [2] $end
$var wire 1 / R2 [1] $end
$var wire 1 0 R2 [0] $end
$var wire 1 1 R3 [3] $end
$var wire 1 2 R3 [2] $end
$var wire 1 3 R3 [1] $end
$var wire 1 4 R3 [0] $end
$var wire 1 5 R4 [3] $end
$var wire 1 6 R4 [2] $end
$var wire 1 7 R4 [1] $end
$var wire 1 8 R4 [0] $end
$var wire 1 9 R5 [3] $end
$var wire 1 : R5 [2] $end
$var wire 1 ; R5 [1] $end
$var wire 1 < R5 [0] $end

$scope module i1 $end
$var wire 1 = gnd $end
$var wire 1 > vcc $end
$var wire 1 ? unknown $end
$var tri1 1 @ devclrn $end
$var tri1 1 A devpor $end
$var tri1 1 B devoe $end
$var wire 1 C R5[0]~output_o $end
$var wire 1 D R5[1]~output_o $end
$var wire 1 E R5[2]~output_o $end
$var wire 1 F R5[3]~output_o $end
$var wire 1 G R4[0]~output_o $end
$var wire 1 H R4[1]~output_o $end
$var wire 1 I R4[2]~output_o $end
$var wire 1 J R4[3]~output_o $end
$var wire 1 K R3[0]~output_o $end
$var wire 1 L R3[1]~output_o $end
$var wire 1 M R3[2]~output_o $end
$var wire 1 N R3[3]~output_o $end
$var wire 1 O R2[0]~output_o $end
$var wire 1 P R2[1]~output_o $end
$var wire 1 Q R2[2]~output_o $end
$var wire 1 R R2[3]~output_o $end
$var wire 1 S R1[0]~output_o $end
$var wire 1 T R1[1]~output_o $end
$var wire 1 U R1[2]~output_o $end
$var wire 1 V R1[3]~output_o $end
$var wire 1 W R0[0]~output_o $end
$var wire 1 X R0[1]~output_o $end
$var wire 1 Y R0[2]~output_o $end
$var wire 1 Z R0[3]~output_o $end
$var wire 1 [ ST~input_o $end
$var wire 1 \ CLK~input_o $end
$var wire 1 ] CLK_100~0_combout $end
$var wire 1 ^ S[0]~input_o $end
$var wire 1 _ S[1]~input_o $end
$var wire 1 ` S[2]~input_o $end
$var wire 1 a Equal0~0_combout $end
$var wire 1 b CLK_100~combout $end
$var wire 1 c TEMP1[0]~3_combout $end
$var wire 1 d CLR~input_o $end
$var wire 1 e CLRSTATE~0_combout $end
$var wire 1 f TEMP0[0]~3_combout $end
$var wire 1 g TEMP0[2]~1_combout $end
$var wire 1 h TEMP0~2_combout $end
$var wire 1 i TEMP0~0_combout $end
$var wire 1 j Equal1~0_combout $end
$var wire 1 k TEMP1[2]~1_combout $end
$var wire 1 l TEMP1~2_combout $end
$var wire 1 m TEMP1~0_combout $end
$var wire 1 n CLK_M~0_combout $end
$var wire 1 o CLK_M~q $end
$var wire 1 p TEMP3[0]~3_combout $end
$var wire 1 q TEMP2[0]~3_combout $end
$var wire 1 r TEMP2[2]~1_combout $end
$var wire 1 s TEMP2~2_combout $end
$var wire 1 t TEMP2~0_combout $end
$var wire 1 u Equal3~0_combout $end
$var wire 1 v TEMP3[3]~2_combout $end
$var wire 1 w TEMP3~1_combout $end
$var wire 1 x TEMP3~0_combout $end
$var wire 1 y CLK_F~0_combout $end
$var wire 1 z CLK_F~q $end
$var wire 1 { TEMP5[0]~3_combout $end
$var wire 1 | TEMP4[0]~3_combout $end
$var wire 1 } TEMP4[2]~1_combout $end
$var wire 1 ~ TEMP4~2_combout $end
$var wire 1 !! TEMP4~0_combout $end
$var wire 1 "! Equal5~0_combout $end
$var wire 1 #! TEMP5[3]~2_combout $end
$var wire 1 $! TEMP5~1_combout $end
$var wire 1 %! TEMP5~0_combout $end
$var wire 1 &! TEMP5 [3] $end
$var wire 1 '! TEMP5 [2] $end
$var wire 1 (! TEMP5 [1] $end
$var wire 1 )! TEMP5 [0] $end
$var wire 1 *! TEMP4 [3] $end
$var wire 1 +! TEMP4 [2] $end
$var wire 1 ,! TEMP4 [1] $end
$var wire 1 -! TEMP4 [0] $end
$var wire 1 .! TEMP3 [3] $end
$var wire 1 /! TEMP3 [2] $end
$var wire 1 0! TEMP3 [1] $end
$var wire 1 1! TEMP3 [0] $end
$var wire 1 2! TEMP2 [3] $end
$var wire 1 3! TEMP2 [2] $end
$var wire 1 4! TEMP2 [1] $end
$var wire 1 5! TEMP2 [0] $end
$var wire 1 6! TEMP1 [3] $end
$var wire 1 7! TEMP1 [2] $end
$var wire 1 8! TEMP1 [1] $end
$var wire 1 9! TEMP1 [0] $end
$var wire 1 :! TEMP0 [3] $end
$var wire 1 ;! TEMP0 [2] $end
$var wire 1 <! TEMP0 [1] $end
$var wire 1 =! TEMP0 [0] $end
$upscope $end
$upscope $end
$enddefinitions $end
#0
$dumpvars
0!
0"
b101 #
0$
0(
0'
0&
0%
0,
0+
0*
0)
00
0/
0.
0-
04
03
02
01
08
07
06
05
0<
0;
0:
09
0=
1>
x?
1@
1A
1B
0C
0D
0E
0F
0G
0H
0I
0J
0K
0L
0M
0N
0O
0P
0Q
0R
0S
0T
0U
0V
0W
0X
0Y
0Z
0[
0\
0]
1^
0_
1`
1a
0b
1c
0d
0e
1f
0g
0h
0i
0j
0k
0l
0m
0n
0o
1p
1q
0r
0s
0t
0u
0v
0w
0x
0y
0z
1{
1|
0}
0~
0!!
0"!
0#!
0$!
0%!
0)!
0(!
0'!
0&!
0-!
0,!
0+!
0*!
01!
00!
0/!
0.!
05!
04!
03!
02!
09!
08!
07!
06!
0=!
0<!
0;!
0:!
$end
#25000
1!
1\
#50000
0!
0\
#75000
1!
1\
#100000
0!
0\
#125000
1!
1\
#150000
0!
0\
#175000
1!
1\
#200000
0!
0\
#225000
1!
1\
#250000
0!
0\
#275000
1!
1\
#300000
0!
0\
#325000
1!
1\
#350000
0!
0\
#375000
1!
1\
#400000
0!
0\
#425000
1!
1\
#450000
0!
0\
#475000
1!
1\
#500000
1$
0!
1[
0\
#525000
1!
1\
1]
1b
1=!
1W
1(
1i
0f
#550000
0!
0\
0]
0b
#575000
1!
1\
1]
1b
1<!
0=!
0W
1X
1'
0(
1f
#600000
0!
0\
0]
0b
#625000
1!
1\
1]
1b
1=!
1W
1(
0i
1g
0f
#650000
0!
0\
0]
0b
#675000
1!
1\
1]
1b
0<!
1;!
0=!
0W
1Y
0X
0'
1&
0(
1f
#700000
0!
0\
0]
0b
#725000
1!
1\
1]
1b
1=!
1W
1(
1i
0f
#750000
0!
0\
0]
0b
#775000
1!
1\
1]
1b
1<!
0=!
0W
1X
1'
0(
1f
#800000
0!
0\
0]
0b
#825000
1!
1\
1]
1b
1=!
1W
1(
0i
1h
0g
0f
#850000
0!
0\
0]
0b
#875000
1!
1\
1]
1b
0<!
1:!
0;!
0=!
0W
0Y
1Z
0X
0'
1%
0&
0(
1f
#900000
0!
0\
0]
0b
#925000
1!
1\
1]
1b
1=!
1W
1j
1(
0h
0f
#950000
0!
0\
0]
0b
#975000
1!
1\
1]
1b
19!
0:!
0=!
0W
0Z
1S
0j
1,
0%
0(
1f
1m
0c
#1000000
0$
0!
0[
0\
0]
0b
#1025000
1!
1\
#1050000
0!
0\
#1075000
1!
1\
#1100000
0!
0\
#1125000
1!
1\
#1150000
0!
0\
#1175000
1!
1\
#1200000
0!
0\
#1225000
1!
1\
#1250000
0!
0\
#1275000
1!
1\
#1300000
0!
0\
#1325000
1!
1\
#1350000
0!
0\
#1375000
1!
1\
#1400000
0!
0\
#1425000
1!
1\
#1450000
0!
0\
#1475000
1!
1\
#1500000
1$
0!
1[
0\
#1525000
1!
1\
1]
1b
1=!
1W
1(
1i
0f
#1550000
0!
0\
0]
0b
#1575000
1!
1\
1]
1b
1<!
0=!
0W
1X
1'
0(
1f
#1600000
0!
0\
0]
0b
#1625000
1!
1\
1]
1b
1=!
1W
1(
0i
1g
0f
#1650000
0!
0\
0]
0b
#1675000
1!
1\
1]
1b
0<!
1;!
0=!
0W
1Y
0X
0'
1&
0(
1f
#1700000
0!
0\
0]
0b
#1725000
1!
1\
1]
1b
1=!
1W
1(
1i
0f
#1750000
0!
0\
0]
0b
#1775000
1!
1\
1]
1b
1<!
0=!
0W
1X
1'
0(
1f
#1800000
0!
0\
0]
0b
#1825000
1!
1\
1]
1b
1=!
1W
1(
0i
1h
0g
0f
#1850000
0!
0\
0]
0b
#1875000
1!
1\
1]
1b
0<!
1:!
0;!
0=!
0W
0Y
1Z
0X
0'
1%
0&
0(
1f
#1900000
0!
0\
0]
0b
#1925000
1!
1\
1]
1b
1=!
1W
1j
1(
0h
0f
#1950000
0!
0\
0]
0b
#1975000
1!
1\
1]
1b
18!
09!
0:!
0=!
0W
0Z
0S
1T
0j
1+
0,
0%
0(
1f
1c
#2000000
0$
0!
0[
0\
0]
0b
#2025000
1!
1\
#2050000
0!
0\
#2075000
1!
1\
#2100000
0!
0\
#2125000
1!
1\
#2150000
0!
0\
#2175000
1!
1\
#2200000
0!
0\
#2225000
1!
1\
#2250000
0!
0\
#2275000
1!
1\
#2300000
0!
0\
#2325000
1!
1\
#2350000
0!
0\
#2375000
1!
1\
#2400000
0!
0\
#2425000
1!
1\
#2450000
0!
0\
#2475000
1!
1\
#2500000
1$
0!
1[
0\
#2525000
1!
1\
1]
1b
1=!
1W
1(
1i
0f
#2550000
0!
0\
0]
0b
#2575000
1!
1\
1]
1b
1<!
0=!
0W
1X
1'
0(
1f
#2600000
0!
0\
0]
0b
#2625000
1!
1\
1]
1b
1=!
1W
1(
0i
1g
0f
#2650000
0!
0\
0]
0b
#2675000
1!
1\
1]
1b
0<!
1;!
0=!
0W
1Y
0X
0'
1&
0(
1f
#2700000
0!
0\
0]
0b
#2725000
1!
1\
1]
1b
1=!
1W
1(
1i
0f
#2750000
0!
0\
0]
0b
#2775000
1!
1\
1]
1b
1<!
0=!
0W
1X
1'
0(
1f
#2800000
0!
0\
0]
0b
#2825000
1!
1\
1]
1b
1=!
1W
1(
0i
1h
0g
0f
#2850000
0!
0\
0]
0b
#2875000
1!
1\
1]
1b
0<!
1:!
0;!
0=!
0W
0Y
1Z
0X
0'
1%
0&
0(
1f
#2900000
0!
0\
0]
0b
#2925000
1!
1\
1]
1b
1=!
1W
1j
1(
0h
0f
#2950000
0!
0\
0]
0b
#2975000
1!
1\
1]
1b
19!
0:!
0=!
0W
0Z
1S
0j
1,
0%
0(
1f
0m
1k
0c
0k
#3000000
0$
0!
0[
0\
0]
0b
#3025000
1!
1\
#3050000
0!
0\
#3075000
1!
1\
#3100000
0!
0\
#3125000
1!
1\
#3150000
0!
0\
#3175000
1!
1\
#3200000
0!
0\
#3225000
1!
1\
#3250000
0!
0\
#3275000
1!
1\
#3300000
0!
0\
#3325000
1!
1\
#3350000
0!
0\
#3375000
1!
1\
#3400000
0!
0\
#3425000
1!
1\
#3450000
0!
0\
#3475000
1!
1\
#3500000
1$
0!
1[
0\
#3525000
1!
1\
1]
1b
1=!
1W
1(
1i
0f
#3550000
0!
0\
0]
0b
#3575000
1!
1\
1]
1b
1<!
0=!
0W
1X
1'
0(
1f
#3600000
0!
0\
0]
0b
#3625000
1!
1\
1]
1b
1=!
1W
1(
0i
1g
0f
#3650000
0!
0\
0]
0b
#3675000
1!
1\
1]
1b
0<!
1;!
0=!
0W
1Y
0X
0'
1&
0(
1f
#3700000
0!
0\
0]
0b
#3725000
1!
1\
1]
1b
1=!
1W
1(
1i
0f
#3750000
0!
0\
0]
0b
#3775000
1!
1\
1]
1b
1<!
0=!
0W
1X
1'
0(
1f
#3800000
0!
0\
0]
0b
#3825000
1!
1\
1]
1b
1=!
1W
1(
0i
1h
0g
0f
#3850000
0!
0\
0]
0b
#3875000
1!
1\
1]
1b
0<!
1:!
0;!
0=!
0W
0Y
1Z
0X
0'
1%
0&
0(
1f
#3900000
0!
0\
0]
0b
#3925000
1!
1\
1]
1b
1=!
1W
1j
1(
0h
0f
1k
#3950000
0!
0\
0]
0b
#3975000
1!
1\
1]
1b
08!
17!
09!
0:!
0=!
0W
0Z
0S
1U
0T
0j
0+
1*
0,
0%
0(
1f
1c
#4000000
0$
0!
0[
0\
0]
0b
#4025000
1!
1\
#4050000
0!
0\
#4075000
1!
1\
#4100000
0!
0\
#4125000
1!
1\
#4150000
0!
0\
#4175000
1!
1\
#4200000
0!
0\
#4225000
1!
1\
#4250000
0!
0\
#4275000
1!
1\
#4300000
0!
0\
#4325000
1!
1\
#4350000
0!
0\
#4375000
1!
1\
#4400000
0!
0\
#4425000
1!
1\
#4450000
0!
0\
#4475000
1!
1\
#4500000
1$
0!
1[
0\
#4525000
1!
1\
1]
1b
1=!
1W
1(
1i
0f
#4550000
0!
0\
0]
0b
#4575000
1!
1\
1]
1b
1<!
0=!
0W
1X
1'
0(
1f
#4600000
0!
0\
0]
0b
#4625000
1!
1\
1]
1b
1=!
1W
1(
0i
1g
0f
#4650000
0!
0\
0]
0b
#4675000
1!
1\
1]
1b
0<!
1;!
0=!
0W
1Y
0X
0'
1&
0(
1f
#4700000
0!
0\
0]
0b
#4725000
1!
1\
1]
1b
1=!
1W
1(
1i
0f
#4750000
0!
0\
0]
0b
#4775000
1!
1\
1]
1b
1<!
0=!
0W
1X
1'
0(
1f
#4800000
0!
0\
0]
0b
#4825000
1!
1\
1]
1b
1=!
1W
1(
0i
1h
0g
0f
#4850000
0!
0\
0]
0b
#4875000
1!
1\
1]
1b
0<!
1:!
0;!
0=!
0W
0Y
1Z
0X
0'
1%
0&
0(
1f
#4900000
0!
0\
0]
0b
#4925000
1!
1\
1]
1b
1=!
1W
1j
1(
0h
0f
#4950000
0!
0\
0]
0b
#4975000
1!
1\
1]
1b
19!
0:!
0=!
0W
0Z
1S
0j
1,
0%
0(
1f
1m
0c
#5000000
0$
0!
0[
0\
0]
0b
#5025000
1!
1\
#5050000
0!
0\
#5075000
1!
1\
#5100000
0!
0\
#5125000
1!
1\
#5150000
0!
0\
#5175000
1!
1\
#5200000
0!
0\
#5225000
1!
1\
#5250000
0!
0\
#5275000
1!
1\
#5300000
0!
0\
#5325000
1!
1\
#5350000
0!
0\
#5375000
1!
1\
#5400000
0!
0\
#5425000
1!
1\
#5450000
0!
0\
#5475000
1!
1\
#5500000
1$
0!
1[
0\
#5525000
1!
1\
1]
1b
1=!
1W
1(
1i
0f
#5550000
0!
0\
0]
0b
#5575000
1!
1\
1]
1b
1<!
0=!
0W
1X
1'
0(
1f
#5600000
0!
0\
0]
0b
#5625000
1!
1\
1]
1b
1=!
1W
1(
0i
1g
0f
#5650000
0!
0\
0]
0b
#5675000
1!
1\
1]
1b
0<!
1;!
0=!
0W
1Y
0X
0'
1&
0(
1f
#5700000
0!
0\
0]
0b
#5725000
1!
1\
1]
1b
1=!
1W
1(
1i
0f
#5750000
0!
0\
0]
0b
#5775000
1!
1\
1]
1b
1<!
0=!
0W
1X
1'
0(
1f
#5800000
0!
0\
0]
0b
#5825000
1!
1\
1]
1b
1=!
1W
1(
0i
1h
0g
0f
#5850000
0!
0\
0]
0b
#5875000
1!
1\
1]
1b
0<!
1:!
0;!
0=!
0W
0Y
1Z
0X
0'
1%
0&
0(
1f
#5900000
0!
0\
0]
0b
#5925000
1!
1\
1]
1b
1=!
1W
1j
1(
0h
0f
#5950000
0!
0\
0]
0b
#5975000
1!
1\
1]
1b
18!
09!
0:!
0=!
0W
0Z
0S
1T
0j
1+
0,
0%
0(
1f
1c
#6000000
0$
0!
0[
0\
0]
0b
#6025000
1!
1\
#6050000
0!
0\
#6075000
1!
1\
#6100000
0!
0\
#6125000
1!
1\
#6150000
0!
0\
#6175000
1!
1\
#6200000
0!
0\
#6225000
1!
1\
#6250000
0!
0\
#6275000
1!
1\
#6300000
0!
0\
#6325000
1!
1\
#6350000
0!
0\
#6375000
1!
1\
#6400000
0!
0\
#6425000
1!
1\
#6450000
0!
0\
#6475000
1!
1\
#6500000
1$
0!
1[
0\
#6525000
1!
1\
1]
1b
1=!
1W
1(
1i
0f
#6550000
0!
0\
0]
0b
#6575000
1!
1\
1]
1b
1<!
0=!
0W
1X
1'
0(
1f
#6600000
0!
0\
0]
0b
#6625000
1!
1\
1]
1b
1=!
1W
1(
0i
1g
0f
#6650000
0!
0\
0]
0b
#6675000
1!
1\
1]
1b
0<!
1;!
0=!
0W
1Y
0X
0'
1&
0(
1f
#6700000
0!
0\
0]
0b
#6725000
1!
1\
1]
1b
1=!
1W
1(
1i
0f
#6750000
0!
0\
0]
0b
#6775000
1!
1\
1]
1b
1<!
0=!
0W
1X
1'
0(
1f
#6800000
0!
0\
0]
0b
#6825000
1!
1\
1]
1b
1=!
1W
1(
0i
1h
0g
0f
#6850000
0!
0\
0]
0b
#6875000
1!
1\
1]
1b
0<!
1:!
0;!
0=!
0W
0Y
1Z
0X
0'
1%
0&
0(
1f
#6900000
0!
0\
0]
0b
#6925000
1!
1\
1]
1b
1=!
1W
1j
1(
0h
0f
#6950000
0!
0\
0]
0b
#6975000
1!
1\
1]
1b
19!
0:!
0=!
0W
0Z
1S
0j
1,
0%
0(
1f
0m
1l
0k
0c
1k
#7000000
0$
0!
0[
0\
0]
0b
#7025000
1!
1\
#7050000
0!
0\
#7075000
1!
1\
#7100000
0!
0\
#7125000
1!
1\
#7150000
0!
0\
#7175000
1!
1\
#7200000
0!
0\
#7225000
1!
1\
#7250000
0!
0\
#7275000
1!
1\
#7300000
0!
0\
#7325000
1!
1\
#7350000
0!
0\
#7375000
1!
1\
#7400000
0!
0\
#7425000
1!
1\
#7450000
0!
0\
#7475000
1!
1\
#7500000
1$
0!
1[
0\
#7525000
1!
1\
1]
1b
1=!
1W
1(
1i
0f
#7550000
0!
0\
0]
0b
#7575000
1!
1\
1]
1b
1<!
0=!
0W
1X
1'
0(
1f
#7600000
0!
0\
0]
0b
#7625000
1!
1\
1]
1b
1=!
1W
1(
0i
1g
0f
#7650000
0!
0\
0]
0b
#7675000
1!
1\
1]
1b
0<!
1;!
0=!
0W
1Y
0X
0'
1&
0(
1f
#7700000
0!
0\
0]
0b
#7725000
1!
1\
1]
1b
1=!
1W
1(
1i
0f
#7750000
0!
0\
0]
0b
#7775000
1!
1\
1]
1b
1<!
0=!
0W
1X
1'
0(
1f
#7800000
0!
0\
0]
0b
#7825000
1!
1\
1]
1b
1=!
1W
1(
0i
1h
0g
0f
#7850000
0!
0\
0]
0b
#7875000
1!
1\
1]
1b
0<!
1:!
0;!
0=!
0W
0Y
1Z
0X
0'
1%
0&
0(
1f
#7900000
0!
0\
0]
0b
#7925000
1!
1\
1]
1b
1=!
1W
1j
1(
0h
0f
0k
#7950000
0!
0\
0]
0b
#7975000
1!
1\
1]
1b
08!
16!
07!
09!
0:!
0=!
0W
0Z
0S
0U
1V
0T
0j
0+
1)
0*
0,
0%
0(
1f
1c
#8000000
0$
0!
0[
0\
0]
0b
#8025000
1!
1\
#8050000
0!
0\
#8075000
1!
1\
#8100000
0!
0\
#8125000
1!
1\
#8150000
0!
0\
#8175000
1!
1\
#8200000
0!
0\
#8225000
1!
1\
#8250000
0!
0\
#8275000
1!
1\
#8300000
0!
0\
#8325000
1!
1\
#8350000
0!
0\
#8375000
1!
1\
#8400000
0!
0\
#8425000
1!
1\
#8450000
0!
0\
#8475000
1!
1\
#8500000
1$
0!
1[
0\
#8525000
1!
1\
1]
1b
1=!
1W
1(
1i
0f
#8550000
0!
0\
0]
0b
#8575000
1!
1\
1]
1b
1<!
0=!
0W
1X
1'
0(
1f
#8600000
0!
0\
0]
0b
#8625000
1!
1\
1]
1b
1=!
1W
1(
0i
1g
0f
#8650000
0!
0\
0]
0b
#8675000
1!
1\
1]
1b
0<!
1;!
0=!
0W
1Y
0X
0'
1&
0(
1f
#8700000
0!
0\
0]
0b
#8725000
1!
1\
1]
1b
1=!
1W
1(
1i
0f
#8750000
0!
0\
0]
0b
#8775000
1!
1\
1]
1b
1<!
0=!
0W
1X
1'
0(
1f
#8800000
0!
0\
0]
0b
#8825000
1!
1\
1]
1b
1=!
1W
1(
0i
1h
0g
0f
#8850000
0!
0\
0]
0b
#8875000
1!
1\
1]
1b
0<!
1:!
0;!
0=!
0W
0Y
1Z
0X
0'
1%
0&
0(
1f
#8900000
0!
0\
0]
0b
#8925000
1!
1\
1]
1b
1=!
1W
1j
1(
0h
0f
#8950000
0!
0\
0]
0b
#8975000
1!
1\
1]
1b
19!
0:!
0=!
0W
0Z
1S
0j
1,
0%
0(
1f
1n
0l
0c
0n
#9000000
0$
0!
0[
0\
0]
0b
#9025000
1!
1\
#9050000
0!
0\
#9075000
1!
1\
#9100000
0!
0\
#9125000
1!
1\
#9150000
0!
0\
#9175000
1!
1\
#9200000
0!
0\
#9225000
1!
1\
#9250000
0!
0\
#9275000
1!
1\
#9300000
0!
0\
#9325000
1!
1\
#9350000
0!
0\
#9375000
1!
1\
#9400000
0!
0\
#9425000
1!
1\
#9450000
0!
0\
#9475000
1!
1\
#9500000
1$
0!
1[
0\
#9525000
1!
1\
1]
1b
1=!
1W
1(
1i
0f
#9550000
0!
0\
0]
0b
#9575000
1!
1\
1]
1b
1<!
0=!
0W
1X
1'
0(
1f
#9600000
0!
0\
0]
0b
#9625000
1!
1\
1]
1b
1=!
1W
1(
0i
1g
0f
#9650000
0!
0\
0]
0b
#9675000
1!
1\
1]
1b
0<!
1;!
0=!
0W
1Y
0X
0'
1&
0(
1f
#9700000
0!
0\
0]
0b
#9725000
1!
1\
1]
1b
1=!
1W
1(
1i
0f
#9750000
0!
0\
0]
0b
#9775000
1!
1\
1]
1b
1<!
0=!
0W
1X
1'
0(
1f
#9800000
0!
0\
0]
0b
#9825000
1!
1\
1]
1b
1=!
1W
1(
0i
1h
0g
0f
#9850000
0!
0\
0]
0b
#9875000
1!
1\
1]
1b
0<!
1:!
0;!
0=!
0W
0Y
1Z
0X
0'
1%
0&
0(
1f
#9900000
0!
0\
0]
0b
#9925000
1!
1\
1]
1b
1=!
1W
1j
1(
0h
0f
1n
#9950000
0!
0\
0]
0b
#9975000
1!
1\
1]
1b
1o
06!
09!
0:!
0=!
0W
0Z
0S
0V
0j
0)
0,
0%
0(
1f
0n
1c
15!
1O
10
1t
0q
#10000000
0$
0!
0[
0\
0]
0b
#10025000
1!
1\
#10050000
0!
0\
#10075000
1!
1\
#10100000
0!
0\
#10125000
1!
1\
#10150000
0!
0\
#10175000
1!
1\
#10200000
0!
0\
#10225000
1!
1\
#10250000
0!
0\
#10275000
1!
1\
#10300000
0!
0\
#10325000
1!
1\
#10350000
0!
0\
#10375000
1!
1\
#10400000
0!
0\
#10425000
1!
1\
#10450000
0!
0\
#10475000
1!
1\
#10500000
1$
0!
1[
0\
#10525000
1!
1\
1]
1b
0o
1=!
1W
1(
1i
0f
#10550000
0!
0\
0]
0b
#10575000
1!
1\
1]
1b
1<!
0=!
0W
1X
1'
0(
1f
#10600000
0!
0\
0]
0b
#10625000
1!
1\
1]
1b
1=!
1W
1(
0i
1g
0f
#10650000
0!
0\
0]
0b
#10675000
1!
1\
1]
1b
0<!
1;!
0=!
0W
1Y
0X
0'
1&
0(
1f
#10700000
0!
0\
0]
0b
#10725000
1!
1\
1]
1b
1=!
1W
1(
1i
0f
#10750000
0!
0\
0]
0b
#10775000
1!
1\
1]
1b
1<!
0=!
0W
1X
1'
0(
1f
#10800000
0!
0\
0]
0b
#10825000
1!
1\
1]
1b
1=!
1W
1(
0i
1h
0g
0f
#10850000
0!
0\
0]
0b
#10875000
1!
1\
1]
1b
0<!
1:!
0;!
0=!
0W
0Y
1Z
0X
0'
1%
0&
0(
1f
#10900000
0!
0\
0]
0b
#10925000
1!
1\
1]
1b
1=!
1W
1j
1(
0h
0f
#10950000
0!
0\
0]
0b
#10975000
1!
1\
1]
1b
19!
0:!
0=!
0W
0Z
1S
0j
1,
0%
0(
1f
1m
0c
#11000000
0$
0!
0[
0\
0]
0b
#11025000
1!
1\
#11050000
0!
0\
#11075000
1!
1\
#11100000
0!
0\
#11125000
1!
1\
#11150000
0!
0\
#11175000
1!
1\
#11200000
0!
0\
#11225000
1!
1\
#11250000
0!
0\
#11275000
1!
1\
#11300000
0!
0\
#11325000
1!
1\
#11350000
0!
0\
#11375000
1!
1\
#11400000
0!
0\
#11425000
1!
1\
#11450000
0!
0\
#11475000
1!
1\
#11500000
1$
0!
1[
0\
#11525000
1!
1\
1]
1b
1=!
1W
1(
1i
0f
#11550000
0!
0\
0]
0b
#11575000
1!
1\
1]
1b
1<!
0=!
0W
1X
1'
0(
1f
#11600000
0!
0\
0]
0b
#11625000
1!
1\
1]
1b
1=!
1W
1(
0i
1g
0f
#11650000
0!
0\
0]
0b
#11675000
1!
1\
1]
1b
0<!
1;!
0=!
0W
1Y
0X
0'
1&
0(
1f
#11700000
0!
0\
0]
0b
#11725000
1!
1\
1]
1b
1=!
1W
1(
1i
0f
#11750000
0!
0\
0]
0b
#11775000
1!
1\
1]
1b
1<!
0=!
0W
1X
1'
0(
1f
#11800000
0!
0\
0]
0b
#11825000
1!
1\
1]
1b
1=!
1W
1(
0i
1h
0g
0f
#11850000
0!
0\
0]
0b
#11875000
1!
1\
1]
1b
0<!
1:!
0;!
0=!
0W
0Y
1Z
0X
0'
1%
0&
0(
1f
#11900000
0!
0\
0]
0b
#11925000
1!
1\
1]
1b
1=!
1W
1j
1(
0h
0f
#11950000
0!
0\
0]
0b
#11975000
1!
1\
1]
1b
18!
09!
0:!
0=!
0W
0Z
0S
1T
0j
1+
0,
0%
0(
1f
1c
#12000000
0$
0!
0[
0\
0]
0b
#12025000
1!
1\
#12050000
0!
0\
#12075000
1!
1\
#12100000
0!
0\
#12125000
1!
1\
#12150000
0!
0\
#12175000
1!
1\
#12200000
0!
0\
#12225000
1!
1\
#12250000
0!
0\
#12275000
1!
1\
#12300000
0!
0\
#12325000
1!
1\
#12350000
0!
0\
#12375000
1!
1\
#12400000
0!
0\
#12425000
1!
1\
#12450000
0!
0\
#12475000
1!
1\
#12500000
1$
0!
1[
0\
#12525000
1!
1\
1]
1b
1=!
1W
1(
1i
0f
#12550000
0!
0\
0]
0b
#12575000
1!
1\
1]
1b
1<!
0=!
0W
1X
1'
0(
1f
#12600000
0!
0\
0]
0b
#12625000
1!
1\
1]
1b
1=!
1W
1(
0i
1g
0f
#12650000
0!
0\
0]
0b
#12675000
1!
1\
1]
1b
0<!
1;!
0=!
0W
1Y
0X
0'
1&
0(
1f
#12700000
0!
0\
0]
0b
#12725000
1!
1\
1]
1b
1=!
1W
1(
1i
0f
#12750000
0!
0\
0]
0b
#12775000
1!
1\
1]
1b
1<!
0=!
0W
1X
1'
0(
1f
#12800000
0!
0\
0]
0b
#12825000
1!
1\
1]
1b
1=!
1W
1(
0i
1h
0g
0f
#12850000
0!
0\
0]
0b
#12875000
1!
1\
1]
1b
0<!
1:!
0;!
0=!
0W
0Y
1Z
0X
0'
1%
0&
0(
1f
#12900000
0!
0\
0]
0b
#12925000
1!
1\
1]
1b
1=!
1W
1j
1(
0h
0f
#12950000
0!
0\
0]
0b
#12975000
1!
1\
1]
1b
19!
0:!
0=!
0W
0Z
1S
0j
1,
0%
0(
1f
0m
1k
0c
0k
#13000000
0$
0!
0[
0\
0]
0b
#13025000
1!
1\
#13050000
0!
0\
#13075000
1!
1\
#13100000
0!
0\
#13125000
1!
1\
#13150000
0!
0\
#13175000
1!
1\
#13200000
0!
0\
#13225000
1!
1\
#13250000
0!
0\
#13275000
1!
1\
#13300000
0!
0\
#13325000
1!
1\
#13350000
0!
0\
#13375000
1!
1\
#13400000
0!
0\
#13425000
1!
1\
#13450000
0!
0\
#13475000
1!
1\
#13500000
1$
0!
1[
0\
#13525000
1!
1\
1]
1b
1=!
1W
1(
1i
0f
#13550000
0!
0\
0]
0b
#13575000
1!
1\
1]
1b
1<!
0=!
0W
1X
1'
0(
1f
#13600000
0!
0\
0]
0b
#13625000
1!
1\
1]
1b
1=!
1W
1(
0i
1g
0f
#13650000
0!
0\
0]
0b
#13675000
1!
1\
1]
1b
0<!
1;!
0=!
0W
1Y
0X
0'
1&
0(
1f
#13700000
0!
0\
0]
0b
#13725000
1!
1\
1]
1b
1=!
1W
1(
1i
0f
#13750000
0!
0\
0]
0b
#13775000
1!
1\
1]
1b
1<!
0=!
0W
1X
1'
0(
1f
#13800000
0!
0\
0]
0b
#13825000
1!
1\
1]
1b
1=!
1W
1(
0i
1h
0g
0f
#13850000
0!
0\
0]
0b
#13875000
1!
1\
1]
1b
0<!
1:!
0;!
0=!
0W
0Y
1Z
0X
0'
1%
0&
0(
1f
#13900000
0!
0\
0]
0b
#13925000
1!
1\
1]
1b
1=!
1W
1j
1(
0h
0f
1k
#13950000
0!
0\
0]
0b
#13975000
1!
1\
1]
1b
08!
17!
09!
0:!
0=!
0W
0Z
0S
1U
0T
0j
0+
1*
0,
0%
0(
1f
1c
#14000000
0$
0!
0[
0\
0]
0b
#14025000
1!
1\
#14050000
0!
0\
#14075000
1!
1\
#14100000
0!
0\
#14125000
1!
1\
#14150000
0!
0\
#14175000
1!
1\
#14200000
0!
0\
#14225000
1!
1\
#14250000
0!
0\
#14275000
1!
1\
#14300000
0!
0\
#14325000
1!
1\
#14350000
0!
0\
#14375000
1!
1\
#14400000
0!
0\
#14425000
1!
1\
#14450000
0!
0\
#14475000
1!
1\
