lijiantao2018114266_02/simulation/qsim/lijiantao2018114266_02.msim.vcd
$comment
	File created using the following command:
		vcd file lijiantao2018114266_02.msim.vcd -direction
$end
$date
	Thu Jul 16 22:49:08 2020
$end
$version
	ModelSim Version 10.5b
$end
$timescale
	1ps
$end

$scope module lijiantao2018114266_02_vhd_vec_tst $end
$var wire 1 ! CLK_100HZ $end
$var wire 1 " CLK_500HZ $end

$scope module i1 $end
$var wire 1 # gnd $end
$var wire 1 $ vcc $end
$var wire 1 % unknown $end
$var wire 1 & devoe $end
$var wire 1 ' devclrn $end
$var wire 1 ( devpor $end
$var wire 1 ) ww_devoe $end
$var wire 1 * ww_devclrn $end
$var wire 1 + ww_devpor $end
$var wire 1 , ww_CLK_500HZ $end
$var wire 1 - ww_CLK_100HZ $end
$var wire 1 . \CLK_100HZ~output_o\ $end
$var wire 1 / \CLK_500HZ~input_o\ $end
$var wire 1 0 \M2[1]~2_combout\ $end
$var wire 1 1 \M2~1_combout\ $end
$var wire 1 2 \M2~0_combout\ $end
$var wire 1 3 \TMP2~0_combout\ $end
$var wire 1 4 \TMP2~q\ $end
$var wire 1 5 \M1[1]~2_combout\ $end
$var wire 1 6 \M1~1_combout\ $end
$var wire 1 7 \M1~0_combout\ $end
$var wire 1 8 \TMP1~0_combout\ $end
$var wire 1 9 \TMP1~q\ $end
$var wire 1 : \CLK_100HZ~0_combout\ $end
$var wire 1 ; M2 [2] $end
$var wire 1 < M2 [1] $end
$var wire 1 = M2 [0] $end
$var wire 1 > M1 [2] $end
$var wire 1 ? M1 [1] $end
$var wire 1 @ M1 [0] $end
$var wire 1 A \ALT_INV_TMP2~q\ $end
$var wire 1 B \ALT_INV_TMP1~q\ $end
$var wire 1 C ALT_INV_M2 [2] $end
$var wire 1 D ALT_INV_M2 [1] $end
$var wire 1 E ALT_INV_M2 [0] $end
$var wire 1 F ALT_INV_M1 [2] $end
$var wire 1 G ALT_INV_M1 [1] $end
$var wire 1 H ALT_INV_M1 [0] $end
$var wire 1 I \ALT_INV_CLK_500HZ~input_o\ $end
$upscope $end
$upscope $end
$enddefinitions $end
#0
$dumpvars
0!
0"
0#
1$
x%
1&
1'
1(
1)
1*
1+
0,
0-
0.
0/
00
11
02
13
04
05
16
07
18
09
0:
1A
1B
1I
0;
0<
0=
0>
0?
0@
1C
1D
1E
1F
1G
1H
$end
#10000
1"
1,
1/
0I
1@
19
0B
0H
15
06
1:
1.
1-
1!
#20000
0"
0,
0/
1I
1=
14
0A
0E
10
01
#30000
1"
1,
1/
0I
1?
0@
1H
0G
16
08
#40000
0"
0,
0/
1I
1<
0=
1E
0D
11
03
#50000
1"
1,
1/
0I
1@
09
1B
0H
05
06
17
#60000
0"
0,
0/
1I
1=
04
1A
0E
00
01
12
0:
0.
0-
0!
#70000
1"
1,
1/
0I
0?
0@
1>
0F
1H
1G
07
#80000
0"
0,
0/
1I
0<
0=
1;
0C
1E
1D
02
#90000
1"
1,
1/
0I
0>
1F
16
18
#100000
0"
0,
0/
1I
0;
1C
11
13
#110000
1"
1,
1/
0I
1@
19
0B
0H
15
06
1:
1.
1-
1!
#120000
0"
0,
0/
1I
1=
14
0A
0E
10
01
#130000
1"
1,
1/
0I
1?
0@
1H
0G
16
08
#140000
0"
0,
0/
1I
1<
0=
1E
0D
11
03
#150000
1"
1,
1/
0I
1@
09
1B
0H
05
06
17
#160000
0"
0,
0/
1I
1=
04
1A
0E
00
01
12
0:
0.
0-
0!
#170000
1"
1,
1/
0I
0?
0@
1>
0F
1H
1G
07
#180000
0"
0,
0/
1I
0<
0=
1;
0C
1E
1D
02
#190000
1"
1,
1/
0I
0>
1F
16
18
#200000
0"
0,
0/
1I
0;
1C
11
13
#210000
1"
1,
1/
0I
1@
19
0B
0H
15
06
1:
1.
1-
1!
#220000
0"
0,
0/
1I
1=
14
0A
0E
10
01
#230000
1"
1,
1/
0I
1?
0@
1H
0G
16
08
#240000
0"
0,
0/
1I
1<
0=
1E
0D
11
03
#250000
1"
1,
1/
0I
1@
09
1B
0H
05
06
17
#260000
0"
0,
0/
1I
1=
04
1A
0E
00
01
12
0:
0.
0-
0!
#270000
1"
1,
1/
0I
0?
0@
1>
0F
1H
1G
07
#280000
0"
0,
0/
1I
0<
0=
1;
0C
1E
1D
02
#290000
1"
1,
1/
0I
0>
1F
16
18
#300000
0"
0,
0/
1I
0;
1C
11
13
#310000
1"
1,
1/
0I
1@
19
0B
0H
15
06
1:
1.
1-
1!
#320000
0"
0,
0/
1I
1=
14
0A
0E
10
01
#330000
1"
1,
1/
0I
1?
0@
1H
0G
16
08
#340000
0"
0,
0/
1I
1<
0=
1E
0D
11
03
#350000
1"
1,
1/
0I
1@
09
1B
0H
05
06
17
#360000
0"
0,
0/
1I
1=
04
1A
0E
00
01
12
0:
0.
0-
0!
#370000
1"
1,
1/
0I
0?
0@
1>
0F
1H
1G
07
#380000
0"
0,
0/
1I
0<
0=
1;
0C
1E
1D
02
#390000
1"
1,
1/
0I
0>
1F
16
18
#400000
0"
0,
0/
1I
0;
1C
11
13
#410000
1"
1,
1/
0I
1@
19
0B
0H
15
06
1:
1.
1-
1!
#420000
0"
0,
0/
1I
1=
14
0A
0E
10
01
#430000
1"
1,
1/
0I
1?
0@
1H
0G
16
08
#440000
0"
0,
0/
1I
1<
0=
1E
0D
11
03
#450000
1"
1,
1/
0I
1@
09
1B
0H
05
06
17
#460000
0"
0,
0/
1I
1=
04
1A
0E
00
01
12
0:
0.
0-
0!
#470000
1"
1,
1/
0I
0?
0@
1>
0F
1H
1G
07
#480000
0"
0,
0/
1I
0<
0=
1;
0C
1E
1D
02
#490000
1"
1,
1/
0I
0>
1F
16
18
#500000
0"
0,
0/
1I
0;
1C
11
13
#510000
1"
1,
1/
0I
1@
19
0B
0H
15
06
1:
1.
1-
1!
#520000
0"
0,
0/
1I
1=
14
0A
0E
10
01
#530000
1"
1,
1/
0I
1?
0@
1H
0G
16
08
#540000
0"
0,
0/
1I
1<
0=
1E
0D
11
03
#550000
1"
1,
1/
0I
1@
09
1B
0H
05
06
17
#560000
0"
0,
0/
1I
1=
04
1A
0E
00
01
12
0:
0.
0-
0!
#570000
1"
1,
1/
0I
0?
0@
1>
0F
1H
1G
07
#580000
0"
0,
0/
1I
0<
0=
1;
0C
1E
1D
02
#590000
1"
1,
1/
0I
0>
1F
16
18
#600000
0"
0,
0/
1I
0;
1C
11
13
#610000
1"
1,
1/
0I
1@
19
0B
0H
15
06
1:
1.
1-
1!
#620000
0"
0,
0/
1I
1=
14
0A
0E
10
01
#630000
1"
1,
1/
0I
1?
0@
1H
0G
16
08
#640000
0"
0,
0/
1I
1<
0=
1E
0D
11
03
#650000
1"
1,
1/
0I
1@
09
1B
0H
05
06
17
#660000
0"
0,
0/
1I
1=
04
1A
0E
00
01
12
0:
0.
0-
0!
#670000
1"
1,
1/
0I
0?
0@
1>
0F
1H
1G
07
#680000
0"
0,
0/
1I
0<
0=
1;
0C
1E
1D
02
#690000
1"
1,
1/
0I
0>
1F
16
18
#700000
0"
0,
0/
1I
0;
1C
11
13
#710000
1"
1,
1/
0I
1@
19
0B
0H
15
06
1:
1.
1-
1!
#720000
0"
0,
0/
1I
1=
14
0A
0E
10
01
#730000
1"
1,
1/
0I
1?
0@
1H
0G
16
08
#740000
0"
0,
0/
1I
1<
0=
1E
0D
11
03
#750000
1"
1,
1/
0I
1@
09
1B
0H
05
06
17
#760000
0"
0,
0/
1I
1=
04
1A
0E
00
01
12
0:
0.
0-
0!
#770000
1"
1,
1/
0I
0?
0@
1>
0F
1H
1G
07
#780000
0"
0,
0/
1I
0<
0=
1;
0C
1E
1D
02
#790000
1"
1,
1/
0I
0>
1F
16
18
#800000
0"
0,
0/
1I
0;
1C
11
13
#810000
1"
1,
1/
0I
1@
19
0B
0H
15
06
1:
1.
1-
1!
#820000
0"
0,
0/
1I
1=
14
0A
0E
10
01
#830000
1"
1,
1/
0I
1?
0@
1H
0G
16
08
#840000
0"
0,
0/
1I
1<
0=
1E
0D
11
03
#850000
1"
1,
1/
0I
1@
09
1B
0H
05
06
17
#860000
0"
0,
0/
1I
1=
04
1A
0E
00
01
12
0:
0.
0-
0!
#870000
1"
1,
1/
0I
0?
0@
1>
0F
1H
1G
07
#880000
0"
0,
0/
1I
0<
0=
1;
0C
1E
1D
02
#890000
1"
1,
1/
0I
0>
1F
16
18
#900000
0"
0,
0/
1I
0;
1C
11
13
#910000
1"
1,
1/
0I
1@
19
0B
0H
15
06
1:
1.
1-
1!
#920000
0"
0,
0/
1I
1=
14
0A
0E
10
01
#930000
1"
1,
1/
0I
1?
0@
1H
0G
16
08
#940000
0"
0,
0/
1I
1<
0=
1E
0D
11
03
#950000
1"
1,
1/
0I
1@
09
1B
0H
05
06
17
#960000
0"
0,
0/
1I
1=
04
1A
0E
00
01
12
0:
0.
0-
0!
#970000
1"
1,
1/
0I
0?
0@
1>
0F
1H
1G
07
#980000
0"
0,
0/
1I
0<
0=
1;
0C
1E
1D
02
#990000
1"
1,
1/
0I
0>
1F
16
18
