lijiantao2018114266_03/simulation/qsim/lijiantao2018114266_03.msim.vcd
$comment
	File created using the following command:
		vcd file lijiantao2018114266_03.msim.vcd -direction
$end
$date
	Thu Jul 16 22:50:26 2020
$end
$version
	ModelSim Version 10.5b
$end
$timescale
	1ps
$end

$scope module lijiantao2018114266_03_vlg_vec_tst $end
$var reg 1 ! CLK_100HZ $end
$var wire 1 " CLK_4HZ $end

$scope module i1 $end
$var wire 1 # gnd $end
$var wire 1 $ vcc $end
$var wire 1 % unknown $end
$var tri1 1 & devclrn $end
$var tri1 1 ' devpor $end
$var tri1 1 ( devoe $end
$var wire 1 ) CLK_4HZ~output_o $end
$var wire 1 * CLK_100HZ~input_o $end
$var wire 1 + M2[1]~4_combout $end
$var wire 1 , M2~3_combout $end
$var wire 1 - M2[2]~2_combout $end
$var wire 1 . M2~1_combout $end
$var wire 1 / M2~0_combout $end
$var wire 1 0 TMP2~0_combout $end
$var wire 1 1 TMP2~q $end
$var wire 1 2 M1[1]~4_combout $end
$var wire 1 3 M1~3_combout $end
$var wire 1 4 M1[2]~2_combout $end
$var wire 1 5 M1~1_combout $end
$var wire 1 6 M1~0_combout $end
$var wire 1 7 TMP1~0_combout $end
$var wire 1 8 TMP1~q $end
$var wire 1 9 CLK_4HZ~0_combout $end
$var wire 1 : M2 [4] $end
$var wire 1 ; M2 [3] $end
$var wire 1 < M2 [2] $end
$var wire 1 = M2 [1] $end
$var wire 1 > M2 [0] $end
$var wire 1 ? M1 [4] $end
$var wire 1 @ M1 [3] $end
$var wire 1 A M1 [2] $end
$var wire 1 B M1 [1] $end
$var wire 1 C M1 [0] $end
$upscope $end
$upscope $end
$enddefinitions $end
#0
$dumpvars
0!
0"
0#
1$
x%
1&
1'
1(
0)
0*
0+
1,
0-
0.
0/
10
01
02
13
04
05
06
17
08
09
0>
0=
0<
0;
0:
0C
0B
0A
0@
0?
$end
#5000
1!
1*
18
1C
03
12
19
1)
1"
#10000
0!
0*
1>
11
0,
1+
#15000
1!
1*
0C
1B
13
#20000
0!
0*
1=
0>
1,
#25000
1!
1*
1C
14
03
02
#30000
0!
0*
1>
1-
0,
0+
#35000
1!
1*
1A
0C
0B
13
#40000
0!
0*
0=
0>
1<
1,
#45000
1!
1*
1C
03
12
#50000
0!
0*
1>
0,
1+
#55000
1!
1*
0C
1B
13
#60000
0!
0*
1=
0>
1,
#65000
1!
1*
1C
16
04
03
02
#70000
0!
0*
1>
1/
0-
0,
0+
#75000
1!
1*
1@
0A
0C
0B
13
#80000
0!
0*
0=
0>
0<
1;
1,
#85000
1!
1*
1C
03
12
#90000
0!
0*
1>
0,
1+
#95000
1!
1*
0C
1B
13
#100000
0!
0*
1=
0>
1,
#105000
1!
1*
1C
14
03
02
#110000
0!
0*
1>
1-
0,
0+
#115000
1!
1*
1A
0C
0B
07
13
#120000
0!
0*
0=
0>
1<
00
1,
#125000
1!
1*
08
1C
03
12
#130000
0!
0*
1>
01
09
0,
1+
0)
0"
#135000
1!
1*
0C
1B
13
#140000
0!
0*
1=
0>
1,
#145000
1!
1*
1C
06
15
04
03
02
#150000
0!
0*
1>
0/
1.
0-
0,
0+
#155000
1!
1*
0@
1?
0A
0C
0B
13
#160000
0!
0*
0=
0>
0<
1:
0;
1,
#165000
1!
1*
1C
03
12
#170000
0!
0*
1>
0,
1+
#175000
1!
1*
0C
1B
13
#180000
0!
0*
1=
0>
1,
#185000
1!
1*
1C
14
03
02
#190000
0!
0*
1>
1-
0,
0+
#195000
1!
1*
1A
0C
0B
13
#200000
0!
0*
0=
0>
1<
1,
#205000
1!
1*
1C
03
12
#210000
0!
0*
1>
0,
1+
#215000
1!
1*
0C
1B
13
#220000
0!
0*
1=
0>
1,
#225000
1!
1*
1C
16
04
03
02
#230000
0!
0*
1>
1/
0-
0,
0+
#235000
1!
1*
1@
0A
0C
0B
06
05
#240000
0!
0*
0=
0>
0<
1;
0/
0.
#245000
1!
1*
0@
0?
17
13
#250000
0!
0*
0:
0;
10
1,
#255000
1!
1*
18
1C
03
12
19
1)
1"
#260000
0!
0*
1>
11
0,
1+
#265000
1!
1*
0C
1B
13
#270000
0!
0*
1=
0>
1,
#275000
1!
1*
1C
14
03
02
#280000
0!
0*
1>
1-
0,
0+
#285000
1!
1*
1A
0C
0B
13
#290000
0!
0*
0=
0>
1<
1,
#295000
1!
1*
1C
03
12
#300000
0!
0*
1>
0,
1+
#305000
1!
1*
0C
1B
13
#310000
0!
0*
1=
0>
1,
#315000
1!
1*
1C
16
04
03
02
#320000
0!
0*
1>
1/
0-
0,
0+
#325000
1!
1*
1@
0A
0C
0B
13
#330000
0!
0*
0=
0>
0<
1;
1,
#335000
1!
1*
1C
03
12
#340000
0!
0*
1>
0,
1+
#345000
1!
1*
0C
1B
13
#350000
0!
0*
1=
0>
1,
#355000
1!
1*
1C
14
03
02
#360000
0!
0*
1>
1-
0,
0+
#365000
1!
1*
1A
0C
0B
07
13
#370000
0!
0*
0=
0>
1<
00
1,
#375000
1!
1*
08
1C
03
12
#380000
0!
0*
1>
01
09
0,
1+
0)
0"
#385000
1!
1*
0C
1B
13
#390000
0!
0*
1=
0>
1,
#395000
1!
1*
1C
06
15
04
03
02
#400000
0!
0*
1>
0/
1.
0-
0,
0+
#405000
1!
1*
0@
1?
0A
0C
0B
13
#410000
0!
0*
0=
0>
0<
1:
0;
1,
#415000
1!
1*
1C
03
12
#420000
0!
0*
1>
0,
1+
#425000
1!
1*
0C
1B
13
#430000
0!
0*
1=
0>
1,
#435000
1!
1*
1C
14
03
02
#440000
0!
0*
1>
1-
0,
0+
#445000
1!
1*
1A
0C
0B
13
#450000
0!
0*
0=
0>
1<
1,
#455000
1!
1*
1C
03
12
#460000
0!
0*
1>
0,
1+
#465000
1!
1*
0C
1B
13
#470000
0!
0*
1=
0>
1,
#475000
1!
1*
1C
16
04
03
02
#480000
0!
0*
1>
1/
0-
0,
0+
#485000
1!
1*
1@
0A
0C
0B
06
05
#490000
0!
0*
0=
0>
0<
1;
0/
0.
#495000
1!
1*
0@
0?
17
13
#500000
0!
0*
0:
0;
10
1,
#505000
1!
1*
18
1C
03
12
19
1)
1"
#510000
0!
0*
1>
11
0,
1+
#515000
1!
1*
0C
1B
13
#520000
0!
0*
1=
0>
1,
#525000
1!
1*
1C
14
03
02
#530000
0!
0*
1>
1-
0,
0+
#535000
1!
1*
1A
0C
0B
13
#540000
0!
0*
0=
0>
1<
1,
#545000
1!
1*
1C
03
12
#550000
0!
0*
1>
0,
1+
#555000
1!
1*
0C
1B
13
#560000
0!
0*
1=
0>
1,
#565000
1!
1*
1C
16
04
03
02
#570000
0!
0*
1>
1/
0-
0,
0+
#575000
1!
1*
1@
0A
0C
0B
13
#580000
0!
0*
0=
0>
0<
1;
1,
#585000
1!
1*
1C
03
12
#590000
0!
0*
1>
0,
1+
#595000
1!
1*
0C
1B
13
#600000
0!
0*
1=
0>
1,
#605000
1!
1*
1C
14
03
02
#610000
0!
0*
1>
1-
0,
0+
#615000
1!
1*
1A
0C
0B
07
13
#620000
0!
0*
0=
0>
1<
00
1,
#625000
1!
1*
08
1C
03
12
#630000
0!
0*
1>
01
09
0,
1+
0)
0"
#635000
1!
1*
0C
1B
13
#640000
0!
0*
1=
0>
1,
#645000
1!
1*
1C
06
15
04
03
02
#650000
0!
0*
1>
0/
1.
0-
0,
0+
#655000
1!
1*
0@
1?
0A
0C
0B
13
#660000
0!
0*
0=
0>
0<
1:
0;
1,
#665000
1!
1*
1C
03
12
#670000
0!
0*
1>
0,
1+
#675000
1!
1*
0C
1B
13
#680000
0!
0*
1=
0>
1,
#685000
1!
1*
1C
14
03
02
#690000
0!
0*
1>
1-
0,
0+
#695000
1!
1*
1A
0C
0B
13
#700000
0!
0*
0=
0>
1<
1,
#705000
1!
1*
1C
03
12
#710000
0!
0*
1>
0,
1+
#715000
1!
1*
0C
1B
13
#720000
0!
0*
1=
0>
1,
#725000
1!
1*
1C
16
04
03
02
#730000
0!
0*
1>
1/
0-
0,
0+
#735000
1!
1*
1@
0A
0C
0B
06
05
#740000
0!
0*
0=
0>
0<
1;
0/
0.
#745000
1!
1*
0@
0?
17
13
#750000
0!
0*
0:
0;
10
1,
#755000
1!
1*
18
1C
03
12
19
1)
1"
#760000
0!
0*
1>
11
0,
1+
#765000
1!
1*
0C
1B
13
#770000
0!
0*
1=
0>
1,
#775000
1!
1*
1C
14
03
02
#780000
0!
0*
1>
1-
0,
0+
#785000
1!
1*
1A
0C
0B
13
#790000
0!
0*
0=
0>
1<
1,
#795000
1!
1*
1C
03
12
#800000
0!
0*
1>
0,
1+
#805000
1!
1*
0C
1B
13
#810000
0!
0*
1=
0>
1,
#815000
1!
1*
1C
16
04
03
02
#820000
0!
0*
1>
1/
0-
0,
0+
#825000
1!
1*
1@
0A
0C
0B
13
#830000
0!
0*
0=
0>
0<
1;
1,
#835000
1!
1*
1C
03
12
#840000
0!
0*
1>
0,
1+
#845000
1!
1*
0C
1B
13
#850000
0!
0*
1=
0>
1,
#855000
1!
1*
1C
14
03
02
#860000
0!
0*
1>
1-
0,
0+
#865000
1!
1*
1A
0C
0B
07
13
#870000
0!
0*
0=
0>
1<
00
1,
#875000
1!
1*
08
1C
03
12
#880000
0!
0*
1>
01
09
0,
1+
0)
0"
#885000
1!
1*
0C
1B
13
#890000
0!
0*
1=
0>
1,
#895000
1!
1*
1C
06
15
04
03
02
#900000
0!
0*
1>
0/
1.
0-
0,
0+
#905000
1!
1*
0@
1?
0A
0C
0B
13
#910000
0!
0*
0=
0>
0<
1:
0;
1,
#915000
1!
1*
1C
03
12
#920000
0!
0*
1>
0,
1+
#925000
1!
1*
0C
1B
13
#930000
0!
0*
1=
0>
1,
#935000
1!
1*
1C
14
03
02
#940000
0!
0*
1>
1-
0,
0+
#945000
1!
1*
1A
0C
0B
13
#950000
0!
0*
0=
0>
1<
1,
#955000
1!
1*
1C
03
12
#960000
0!
0*
1>
0,
1+
#965000
1!
1*
0C
1B
13
#970000
0!
0*
1=
0>
1,
#975000
1!
1*
1C
16
04
03
02
#980000
0!
0*
1>
1/
0-
0,
0+
#985000
1!
1*
1@
0A
0C
0B
06
05
#990000
0!
0*
0=
0>
0<
1;
0/
0.
#995000
1!
1*
0@
0?
17
13
